[
  {
    "MatchNumber": 1,
    "RoundNumber": 1,
    "DateUtc": "2023-08-11 19:00:00Z",
    "Location": "Turf Moor",
    "HomeTeam": "Burnley",
    "AwayTeam": "Man City",
    "Group": null,
    "HomeTeamScore": 0,
    "AwayTeamScore": 3
  },
  {
    "MatchNumber": 2,
    "RoundNumber": 1,
    "DateUtc": "2023-08-12 12:00:00Z",
    "Location": "Emirates Stadium",
    "HomeTeam": "Arsenal",
    "AwayTeam": "Nottingham Forest",
    "Group": null,
    "HomeTeamScore": 2,
    "AwayTeamScore": 1
  },
  {
    "MatchNumber": 3,
    "RoundNumber": 1,
    "DateUtc": "2023-08-12 14:00:00Z",
    "Location": "Vitality Stadium",
    "HomeTeam": "Bournemouth",
    "AwayTeam": "West Ham",
    "Group": null,
    "HomeTeamScore": 1,
    "AwayTeamScore": 1
  },
  {
    "MatchNumber": 4,
    "RoundNumber": 1,
    "DateUtc": "2023-08-12 14:00:00Z",
    "Location": "Amex Stadium",
    "HomeTeam": "Brighton",
    "AwayTeam": "Luton",
    "Group": null,
    "HomeTeamScore": 4,
    "AwayTeamScore": 1
  },
  {
    "MatchNumber": 5,
    "RoundNumber": 1,
    "DateUtc": "2023-08-12 14:00:00Z",
    "Location": "Goodison Park",
    "HomeTeam": "Everton",
    "AwayTeam": "Fulham",
    "Group": null,
    "HomeTeamScore": 0,
    "AwayTeamScore": 1
  },
  {
    "MatchNumber": 6,
    "RoundNumber": 1,
    "DateUtc": "2023-08-12 14:00:00Z",
    "Location": "Bramall Lane",
    "HomeTeam": "Sheffield Utd",
    "AwayTeam": "Crystal Palace",
    "Group": null,
    "HomeTeamScore": 0,
    "AwayTeamScore": 1
  },
  {
    "MatchNumber": 7,
    "RoundNumber": 1,
    "DateUtc": "2023-08-12 16:30:00Z",
    "Location": "St. James' Park",
    "HomeTeam": "Newcastle",
    "AwayTeam": "Aston Villa",
    "Group": null,
    "HomeTeamScore": 5,
    "AwayTeamScore": 1
  },
  {
    "MatchNumber": 8,
    "RoundNumber": 1,
    "DateUtc": "2023-08-13 13:00:00Z",
    "Location": "Gtech Community Stadium",
    "HomeTeam": "Brentford",
    "AwayTeam": "Spurs",
    "Group": null,
    "HomeTeamScore": 2,
    "AwayTeamScore": 2
  },
  {
    "MatchNumber": 9,
    "RoundNumber": 1,
    "DateUtc": "2023-08-13 15:30:00Z",
    "Location": "Stamford Bridge",
    "HomeTeam": "Chelsea",
    "AwayTeam": "Liverpool",
    "Group": null,
    "HomeTeamScore": 1,
    "AwayTeamScore": 1
  },
  {
    "MatchNumber": 10,
    "RoundNumber": 1,
    "DateUtc": "2023-08-14 19:00:00Z",
    "Location": "Old Trafford",
    "HomeTeam": "Man Utd",
    "AwayTeam": "Wolves",
    "Group": null,
    "HomeTeamScore": 1,
    "AwayTeamScore": 0
  },
  {
    "MatchNumber": 17,
    "RoundNumber": 2,
    "DateUtc": "2023-08-18 18:45:00Z",
    "Location": "The City Ground",
    "HomeTeam": "Nottingham Forest",
    "AwayTeam": "Sheffield Utd",
    "Group": null,
    "HomeTeamScore": 2,
    "AwayTeamScore": 1
  },
  {
    "MatchNumber": 13,
    "RoundNumber": 2,
    "DateUtc": "2023-08-19 14:00:00Z",
    "Location": "Craven Cottage",
    "HomeTeam": "Fulham",
    "AwayTeam": "Brentford",
    "Group": null,
    "HomeTeamScore": 0,
    "AwayTeamScore": 3
  },
  {
    "MatchNumber": 14,
    "RoundNumber": 2,
    "DateUtc": "2023-08-19 14:00:00Z",
    "Location": "Anfield",
    "HomeTeam": "Liverpool",
    "AwayTeam": "Bournemouth",
    "Group": null,
    "HomeTeamScore": 3,
    "AwayTeamScore": 1
  },
  {
    "MatchNumber": 20,
    "RoundNumber": 2,
    "DateUtc": "2023-08-19 14:00:00Z",
    "Location": "Molineux Stadium",
    "HomeTeam": "Wolves",
    "AwayTeam": "Brighton",
    "Group": null,
    "HomeTeamScore": 1,
    "AwayTeamScore": 4
  },
  {
    "MatchNumber": 18,
    "RoundNumber": 2,
    "DateUtc": "2023-08-19 16:30:00Z",
    "Location": "Tottenham Hotspur Stadium",
    "HomeTeam": "Spurs",
    "AwayTeam": "Man Utd",
    "Group": null,
    "HomeTeamScore": 2,
    "AwayTeamScore": 0
  },
  {
    "MatchNumber": 16,
    "RoundNumber": 2,
    "DateUtc": "2023-08-19 19:00:00Z",
    "Location": "Etihad Stadium",
    "HomeTeam": "Man City",
    "AwayTeam": "Newcastle",
    "Group": null,
    "HomeTeamScore": 1,
    "AwayTeamScore": 0
  },
  {
    "MatchNumber": 11,
    "RoundNumber": 2,
    "DateUtc": "2023-08-20 13:00:00Z",
    "Location": "Villa Park",
    "HomeTeam": "Aston Villa",
    "AwayTeam": "Everton",
    "Group": null,
    "HomeTeamScore": 4,
    "AwayTeamScore": 0
  },
  {
    "MatchNumber": 19,
    "RoundNumber": 2,
    "DateUtc": "2023-08-20 15:30:00Z",
    "Location": "London Stadium",
    "HomeTeam": "West Ham",
    "AwayTeam": "Chelsea",
    "Group": null,
    "HomeTeamScore": 3,
    "AwayTeamScore": 1
  },
  {
    "MatchNumber": 12,
    "RoundNumber": 2,
    "DateUtc": "2023-08-21 19:00:00Z",
    "Location": "Selhurst Park",
    "HomeTeam": "Crystal Palace",
    "AwayTeam": "Arsenal",
    "Group": null,
    "HomeTeamScore": 0,
    "AwayTeamScore": 1
  },
  {
    "MatchNumber": 15,
    "RoundNumber": 2,
    "DateUtc": "2023-10-03 18:30:00Z",
    "Location": "Kenilworth Road",
    "HomeTeam": "Luton",
    "AwayTeam": "Burnley",
    "Group": null,
    "HomeTeamScore": 1,
    "AwayTeamScore": 2
  },
  {
    "MatchNumber": 26,
    "RoundNumber": 3,
    "DateUtc": "2023-08-25 19:00:00Z",
    "Location": "Stamford Bridge",
    "HomeTeam": "Chelsea",
    "AwayTeam": "Luton",
    "Group": null,
    "HomeTeamScore": 3,
    "AwayTeamScore": 0
  },
  {
    "MatchNumber": 22,
    "RoundNumber": 3,
    "DateUtc": "2023-08-26 11:30:00Z",
    "Location": "Vitality Stadium",
    "HomeTeam": "Bournemouth",
    "AwayTeam": "Spurs",
    "Group": null,
    "HomeTeamScore": 0,
    "AwayTeamScore": 2
  },
  {
    "MatchNumber": 21,
    "RoundNumber": 3,
    "DateUtc": "2023-08-26 14:00:00Z",
    "Location": "Emirates Stadium",
    "HomeTeam": "Arsenal",
    "AwayTeam": "Fulham",
    "Group": null,
    "HomeTeamScore": 2,
    "AwayTeamScore": 2
  },
  {
    "MatchNumber": 23,
    "RoundNumber": 3,
    "DateUtc": "2023-08-26 14:00:00Z",
    "Location": "Gtech Community Stadium",
    "HomeTeam": "Brentford",
    "AwayTeam": "Crystal Palace",
    "Group": null,
    "HomeTeamScore": 1,
    "AwayTeamScore": 1
  },
  {
    "MatchNumber": 27,
    "RoundNumber": 3,
    "DateUtc": "2023-08-26 14:00:00Z",
    "Location": "Goodison Park",
    "HomeTeam": "Everton",
    "AwayTeam": "Wolves",
    "Group": null,
    "HomeTeamScore": 0,
    "AwayTeamScore": 1
  },
  {
    "MatchNumber": 28,
    "RoundNumber": 3,
    "DateUtc": "2023-08-26 14:00:00Z",
    "Location": "Old Trafford",
    "HomeTeam": "Man Utd",
    "AwayTeam": "Nottingham Forest",
    "Group": null,
    "HomeTeamScore": 3,
    "AwayTeamScore": 2
  },
  {
    "MatchNumber": 24,
    "RoundNumber": 3,
    "DateUtc": "2023-08-26 16:30:00Z",
    "Location": "Amex Stadium",
    "HomeTeam": "Brighton",
    "AwayTeam": "West Ham",
    "Group": null,
    "HomeTeamScore": 1,
    "AwayTeamScore": 3
  },
  {
    "MatchNumber": 25,
    "RoundNumber": 3,
    "DateUtc": "2023-08-27 13:00:00Z",
    "Location": "Turf Moor",
    "HomeTeam": "Burnley",
    "AwayTeam": "Aston Villa",
    "Group": null,
    "HomeTeamScore": 1,
    "AwayTeamScore": 3
  },
  {
    "MatchNumber": 30,
    "RoundNumber": 3,
    "DateUtc": "2023-08-27 13:00:00Z",
    "Location": "Bramall Lane",
    "HomeTeam": "Sheffield Utd",
    "AwayTeam": "Man City",
    "Group": null,
    "HomeTeamScore": 1,
    "AwayTeamScore": 2
  },
  {
    "MatchNumber": 29,
    "RoundNumber": 3,
    "DateUtc": "2023-08-27 15:30:00Z",
    "Location": "St. James' Park",
    "HomeTeam": "Newcastle",
    "AwayTeam": "Liverpool",
    "Group": null,
    "HomeTeamScore": 1,
    "AwayTeamScore": 2
  },
  {
    "MatchNumber": 38,
    "RoundNumber": 4,
    "DateUtc": "2023-09-01 19:00:00Z",
    "Location": "Kenilworth Road",
    "HomeTeam": "Luton",
    "AwayTeam": "West Ham",
    "Group": null,
    "HomeTeamScore": 1,
    "AwayTeamScore": 2
  },
  {
    "MatchNumber": 40,
    "RoundNumber": 4,
    "DateUtc": "2023-09-02 11:30:00Z",
    "Location": "Bramall Lane",
    "HomeTeam": "Sheffield Utd",
    "AwayTeam": "Everton",
    "Group": null,
    "HomeTeamScore": 2,
    "AwayTeamScore": 2
  },
  {
    "MatchNumber": 32,
    "RoundNumber": 4,
    "DateUtc": "2023-09-02 14:00:00Z",
    "Location": "Gtech Community Stadium",
    "HomeTeam": "Brentford",
    "AwayTeam": "Bournemouth",
    "Group": null,
    "HomeTeamScore": 2,
    "AwayTeamScore": 2
  },
  {
    "MatchNumber": 34,
    "RoundNumber": 4,
    "DateUtc": "2023-09-02 14:00:00Z",
    "Location": "Turf Moor",
    "HomeTeam": "Burnley",
    "AwayTeam": "Spurs",
    "Group": null,
    "HomeTeamScore": 2,
    "AwayTeamScore": 5
  },
  {
    "MatchNumber": 35,
    "RoundNumber": 4,
    "DateUtc": "2023-09-02 14:00:00Z",
    "Location": "Stamford Bridge",
    "HomeTeam": "Chelsea",
    "AwayTeam": "Nottingham Forest",
    "Group": null,
    "HomeTeamScore": 0,
    "AwayTeamScore": 1
  },
  {
    "MatchNumber": 39,
    "RoundNumber": 4,
    "DateUtc": "2023-09-02 14:00:00Z",
    "Location": "Etihad Stadium",
    "HomeTeam": "Man City",
    "AwayTeam": "Fulham",
    "Group": null,
    "HomeTeamScore": 5,
    "AwayTeamScore": 1
  },
  {
    "MatchNumber": 33,
    "RoundNumber": 4,
    "DateUtc": "2023-09-02 16:30:00Z",
    "Location": "Amex Stadium",
    "HomeTeam": "Brighton",
    "AwayTeam": "Newcastle",
    "Group": null,
    "HomeTeamScore": 3,
    "AwayTeamScore": 1
  },
  {
    "MatchNumber": 36,
    "RoundNumber": 4,
    "DateUtc": "2023-09-03 13:00:00Z",
    "Location": "Selhurst Park",
    "HomeTeam": "Crystal Palace",
    "AwayTeam": "Wolves",
    "Group": null,
    "HomeTeamScore": 3,
    "AwayTeamScore": 2
  },
  {
    "MatchNumber": 37,
    "RoundNumber": 4,
    "DateUtc": "2023-09-03 13:00:00Z",
    "Location": "Anfield",
    "HomeTeam": "Liverpool",
    "AwayTeam": "Aston Villa",
    "Group": null,
    "HomeTeamScore": 3,
    "AwayTeamScore": 0
  },
  {
    "MatchNumber": 31,
    "RoundNumber": 4,
    "DateUtc": "2023-09-03 15:30:00Z",
    "Location": "Emirates Stadium",
    "HomeTeam": "Arsenal",
    "AwayTeam": "Man Utd",
    "Group": null,
    "HomeTeamScore": 3,
    "AwayTeamScore": 1
  },
  {
    "MatchNumber": 50,
    "RoundNumber": 5,
    "DateUtc": "2023-09-16 11:30:00Z",
    "Location": "Molineux Stadium",
    "HomeTeam": "Wolves",
    "AwayTeam": "Liverpool",
    "Group": null,
    "HomeTeamScore": 1,
    "AwayTeamScore": 3
  },
  {
    "MatchNumber": 41,
    "RoundNumber": 5,
    "DateUtc": "2023-09-16 14:00:00Z",
    "Location": "Villa Park",
    "HomeTeam": "Aston Villa",
    "AwayTeam": "Crystal Palace",
    "Group": null,
    "HomeTeamScore": 3,
    "AwayTeamScore": 1
  },
  {
    "MatchNumber": 44,
    "RoundNumber": 5,
    "DateUtc": "2023-09-16 14:00:00Z",
    "Location": "Craven Cottage",
    "HomeTeam": "Fulham",
    "AwayTeam": "Luton",
    "Group": null,
    "HomeTeamScore": 1,
    "AwayTeamScore": 0
  },
  {
    "MatchNumber": 45,
    "RoundNumber": 5,
    "DateUtc": "2023-09-16 14:00:00Z",
    "Location": "Old Trafford",
    "HomeTeam": "Man Utd",
    "AwayTeam": "Brighton",
    "Group": null,
    "HomeTeamScore": 1,
    "AwayTeamScore": 3
  },
  {
    "MatchNumber": 48,
    "RoundNumber": 5,
    "DateUtc": "2023-09-16 14:00:00Z",
    "Location": "Tottenham Hotspur Stadium",
    "HomeTeam": "Spurs",
    "AwayTeam": "Sheffield Utd",
    "Group": null,
    "HomeTeamScore": 2,
    "AwayTeamScore": 1
  },
  {
    "MatchNumber": 49,
    "RoundNumber": 5,
    "DateUtc": "2023-09-16 14:00:00Z",
    "Location": "London Stadium",
    "HomeTeam": "West Ham",
    "AwayTeam": "Man City",
    "Group": null,
    "HomeTeamScore": 1,
    "AwayTeamScore": 3
  },
  {
    "MatchNumber": 46,
    "RoundNumber": 5,
    "DateUtc": "2023-09-16 16:30:00Z",
    "Location": "St. James' Park",
    "HomeTeam": "Newcastle",
    "AwayTeam": "Brentford",
    "Group": null,
    "HomeTeamScore": 1,
    "AwayTeamScore": 0
  },
  {
    "MatchNumber": 42,
    "RoundNumber": 5,
    "DateUtc": "2023-09-17 13:00:00Z",
    "Location": "Vitality Stadium",
    "HomeTeam": "Bournemouth",
    "AwayTeam": "Chelsea",
    "Group": null,
    "HomeTeamScore": 0,
    "AwayTeamScore": 0
  },
  {
    "MatchNumber": 43,
    "RoundNumber": 5,
    "DateUtc": "2023-09-17 15:30:00Z",
    "Location": "Goodison Park",
    "HomeTeam": "Everton",
    "AwayTeam": "Arsenal",
    "Group": null,
    "HomeTeamScore": 0,
    "AwayTeamScore": 1
  },
  {
    "MatchNumber": 47,
    "RoundNumber": 5,
    "DateUtc": "2023-09-18 18:45:00Z",
    "Location": "The City Ground",
    "HomeTeam": "Nottingham Forest",
    "AwayTeam": "Burnley",
    "Group": null,
    "HomeTeamScore": 1,
    "AwayTeamScore": 1
  },
  {
    "MatchNumber": 56,
    "RoundNumber": 6,
    "DateUtc": "2023-09-23 14:00:00Z",
    "Location": "Selhurst Park",
    "HomeTeam": "Crystal Palace",
    "AwayTeam": "Fulham",
    "Group": null,
    "HomeTeamScore": 0,
    "AwayTeamScore": 0
  },
  {
    "MatchNumber": 58,
    "RoundNumber": 6,
    "DateUtc": "2023-09-23 14:00:00Z",
    "Location": "Kenilworth Road",
    "HomeTeam": "Luton",
    "AwayTeam": "Wolves",
    "Group": null,
    "HomeTeamScore": 1,
    "AwayTeamScore": 1
  },
  {
    "MatchNumber": 59,
    "RoundNumber": 6,
    "DateUtc": "2023-09-23 14:00:00Z",
    "Location": "Etihad Stadium",
    "HomeTeam": "Man City",
    "AwayTeam": "Nottingham Forest",
    "Group": null,
    "HomeTeamScore": 2,
    "AwayTeamScore": 0
  },
  {
    "MatchNumber": 52,
    "RoundNumber": 6,
    "DateUtc": "2023-09-23 16:30:00Z",
    "Location": "Gtech Community Stadium",
    "HomeTeam": "Brentford",
    "AwayTeam": "Everton",
    "Group": null,
    "HomeTeamScore": 1,
    "AwayTeamScore": 3
  },
  {
    "MatchNumber": 54,
    "RoundNumber": 6,
    "DateUtc": "2023-09-23 19:00:00Z",
    "Location": "Turf Moor",
    "HomeTeam": "Burnley",
    "AwayTeam": "Man Utd",
    "Group": null,
    "HomeTeamScore": 0,
    "AwayTeamScore": 1
  },
  {
    "MatchNumber": 51,
    "RoundNumber": 6,
    "DateUtc": "2023-09-24 13:00:00Z",
    "Location": "Emirates Stadium",
    "HomeTeam": "Arsenal",
    "AwayTeam": "Spurs",
    "Group": null,
    "HomeTeamScore": 2,
    "AwayTeamScore": 2
  },
  {
    "MatchNumber": 53,
    "RoundNumber": 6,
    "DateUtc": "2023-09-24 13:00:00Z",
    "Location": "Amex Stadium",
    "HomeTeam": "Brighton",
    "AwayTeam": "Bournemouth",
    "Group": null,
    "HomeTeamScore": 3,
    "AwayTeamScore": 1
  },
  {
    "MatchNumber": 55,
    "RoundNumber": 6,
    "DateUtc": "2023-09-24 13:00:00Z",
    "Location": "Stamford Bridge",
    "HomeTeam": "Chelsea",
    "AwayTeam": "Aston Villa",
    "Group": null,
    "HomeTeamScore": 0,
    "AwayTeamScore": 1
  },
  {
    "MatchNumber": 57,
    "RoundNumber": 6,
    "DateUtc": "2023-09-24 13:00:00Z",
    "Location": "Anfield",
    "HomeTeam": "Liverpool",
    "AwayTeam": "West Ham",
    "Group": null,
    "HomeTeamScore": 3,
    "AwayTeamScore": 1
  },
  {
    "MatchNumber": 60,
    "RoundNumber": 6,
    "DateUtc": "2023-09-24 15:30:00Z",
    "Location": "Bramall Lane",
    "HomeTeam": "Sheffield Utd",
    "AwayTeam": "Newcastle",
    "Group": null,
    "HomeTeamScore": 0,
    "AwayTeamScore": 8
  },
  {
    "MatchNumber": 61,
    "RoundNumber": 7,
    "DateUtc": "2023-09-30 11:30:00Z",
    "Location": "Villa Park",
    "HomeTeam": "Aston Villa",
    "AwayTeam": "Brighton",
    "Group": null,
    "HomeTeamScore": 6,
    "AwayTeamScore": 1
  },
  {
    "MatchNumber": 62,
    "RoundNumber": 7,
    "DateUtc": "2023-09-30 14:00:00Z",
    "Location": "Vitality Stadium",
    "HomeTeam": "Bournemouth",
    "AwayTeam": "Arsenal",
    "Group": null,
    "HomeTeamScore": 0,
    "AwayTeamScore": 4
  },
  {
    "MatchNumber": 63,
    "RoundNumber": 7,
    "DateUtc": "2023-09-30 14:00:00Z",
    "Location": "Goodison Park",
    "HomeTeam": "Everton",
    "AwayTeam": "Luton",
    "Group": null,
    "HomeTeamScore": 1,
    "AwayTeamScore": 2
  },
  {
    "MatchNumber": 65,
    "RoundNumber": 7,
    "DateUtc": "2023-09-30 14:00:00Z",
    "Location": "Old Trafford",
    "HomeTeam": "Man Utd",
    "AwayTeam": "Crystal Palace",
    "Group": null,
    "HomeTeamScore": 0,
    "AwayTeamScore": 1
  },
  {
    "MatchNumber": 66,
    "RoundNumber": 7,
    "DateUtc": "2023-09-30 14:00:00Z",
    "Location": "St. James' Park",
    "HomeTeam": "Newcastle",
    "AwayTeam": "Burnley",
    "Group": null,
    "HomeTeamScore": 2,
    "AwayTeamScore": 0
  },
  {
    "MatchNumber": 69,
    "RoundNumber": 7,
    "DateUtc": "2023-09-30 14:00:00Z",
    "Location": "London Stadium",
    "HomeTeam": "West Ham",
    "AwayTeam": "Sheffield Utd",
    "Group": null,
    "HomeTeamScore": 2,
    "AwayTeamScore": 0
  },
  {
    "MatchNumber": 70,
    "RoundNumber": 7,
    "DateUtc": "2023-09-30 14:00:00Z",
    "Location": "Molineux Stadium",
    "HomeTeam": "Wolves",
    "AwayTeam": "Man City",
    "Group": null,
    "HomeTeamScore": 2,
    "AwayTeamScore": 1
  },
  {
    "MatchNumber": 68,
    "RoundNumber": 7,
    "DateUtc": "2023-09-30 16:30:00Z",
    "Location": "Tottenham Hotspur Stadium",
    "HomeTeam": "Spurs",
    "AwayTeam": "Liverpool",
    "Group": null,
    "HomeTeamScore": 2,
    "AwayTeamScore": 1
  },
  {
    "MatchNumber": 67,
    "RoundNumber": 7,
    "DateUtc": "2023-10-01 13:00:00Z",
    "Location": "The City Ground",
    "HomeTeam": "Nottingham Forest",
    "AwayTeam": "Brentford",
    "Group": null,
    "HomeTeamScore": 1,
    "AwayTeamScore": 1
  },
  {
    "MatchNumber": 64,
    "RoundNumber": 7,
    "DateUtc": "2023-10-02 19:00:00Z",
    "Location": "Craven Cottage",
    "HomeTeam": "Fulham",
    "AwayTeam": "Chelsea",
    "Group": null,
    "HomeTeamScore": 0,
    "AwayTeamScore": 2
  },
  {
    "MatchNumber": 77,
    "RoundNumber": 8,
    "DateUtc": "2023-10-07 11:30:00Z",
    "Location": "Kenilworth Road",
    "HomeTeam": "Luton",
    "AwayTeam": "Spurs",
    "Group": null,
    "HomeTeamScore": 0,
    "AwayTeamScore": 1
  },
  {
    "MatchNumber": 73,
    "RoundNumber": 8,
    "DateUtc": "2023-10-07 14:00:00Z",
    "Location": "Turf Moor",
    "HomeTeam": "Burnley",
    "AwayTeam": "Chelsea",
    "Group": null,
    "HomeTeamScore": 1,
    "AwayTeamScore": 4
  },
  {
    "MatchNumber": 75,
    "RoundNumber": 8,
    "DateUtc": "2023-10-07 14:00:00Z",
    "Location": "Goodison Park",
    "HomeTeam": "Everton",
    "AwayTeam": "Bournemouth",
    "Group": null,
    "HomeTeamScore": 3,
    "AwayTeamScore": 0
  },
  {
    "MatchNumber": 76,
    "RoundNumber": 8,
    "DateUtc": "2023-10-07 14:00:00Z",
    "Location": "Craven Cottage",
    "HomeTeam": "Fulham",
    "AwayTeam": "Sheffield Utd",
    "Group": null,
    "HomeTeamScore": 3,
    "AwayTeamScore": 1
  },
  {
    "MatchNumber": 78,
    "RoundNumber": 8,
    "DateUtc": "2023-10-07 14:00:00Z",
    "Location": "Old Trafford",
    "HomeTeam": "Man Utd",
    "AwayTeam": "Brentford",
    "Group": null,
    "HomeTeamScore": 2,
    "AwayTeamScore": 1
  },
  {
    "MatchNumber": 74,
    "RoundNumber": 8,
    "DateUtc": "2023-10-07 16:30:00Z",
    "Location": "Selhurst Park",
    "HomeTeam": "Crystal Palace",
    "AwayTeam": "Nottingham Forest",
    "Group": null,
    "HomeTeamScore": 0,
    "AwayTeamScore": 0
  },
  {
    "MatchNumber": 72,
    "RoundNumber": 8,
    "DateUtc": "2023-10-08 13:00:00Z",
    "Location": "Amex Stadium",
    "HomeTeam": "Brighton",
    "AwayTeam": "Liverpool",
    "Group": null,
    "HomeTeamScore": 2,
    "AwayTeamScore": 2
  },
  {
    "MatchNumber": 79,
    "RoundNumber": 8,
    "DateUtc": "2023-10-08 13:00:00Z",
    "Location": "London Stadium",
    "HomeTeam": "West Ham",
    "AwayTeam": "Newcastle",
    "Group": null,
    "HomeTeamScore": 2,
    "AwayTeamScore": 2
  },
  {
    "MatchNumber": 80,
    "RoundNumber": 8,
    "DateUtc": "2023-10-08 13:00:00Z",
    "Location": "Molineux Stadium",
    "HomeTeam": "Wolves",
    "AwayTeam": "Aston Villa",
    "Group": null,
    "HomeTeamScore": 1,
    "AwayTeamScore": 1
  },
  {
    "MatchNumber": 71,
    "RoundNumber": 8,
    "DateUtc": "2023-10-08 15:30:00Z",
    "Location": "Emirates Stadium",
    "HomeTeam": "Arsenal",
    "AwayTeam": "Man City",
    "Group": null,
    "HomeTeamScore": 1,
    "AwayTeamScore": 0
  },
  {
    "MatchNumber": 85,
    "RoundNumber": 9,
    "DateUtc": "2023-10-21 11:30:00Z",
    "Location": "Anfield",
    "HomeTeam": "Liverpool",
    "AwayTeam": "Everton",
    "Group": null,
    "HomeTeamScore": 2,
    "AwayTeamScore": 0
  },
  {
    "MatchNumber": 82,
    "RoundNumber": 9,
    "DateUtc": "2023-10-21 14:00:00Z",
    "Location": "Vitality Stadium",
    "HomeTeam": "Bournemouth",
    "AwayTeam": "Wolves",
    "Group": null,
    "HomeTeamScore": 1,
    "AwayTeamScore": 2
  },
  {
    "MatchNumber": 83,
    "RoundNumber": 9,
    "DateUtc": "2023-10-21 14:00:00Z",
    "Location": "Gtech Community Stadium",
    "HomeTeam": "Brentford",
    "AwayTeam": "Burnley",
    "Group": null,
    "HomeTeamScore": 3,
    "AwayTeamScore": 0
  },
  {
    "MatchNumber": 86,
    "RoundNumber": 9,
    "DateUtc": "2023-10-21 14:00:00Z",
    "Location": "Etihad Stadium",
    "HomeTeam": "Man City",
    "AwayTeam": "Brighton",
    "Group": null,
    "HomeTeamScore": 2,
    "AwayTeamScore": 1
  },
  {
    "MatchNumber": 87,
    "RoundNumber": 9,
    "DateUtc": "2023-10-21 14:00:00Z",
    "Location": "St. James' Park",
    "HomeTeam": "Newcastle",
    "AwayTeam": "Crystal Palace",
    "Group": null,
    "HomeTeamScore": 4,
    "AwayTeamScore": 0
  },
  {
    "MatchNumber": 88,
    "RoundNumber": 9,
    "DateUtc": "2023-10-21 14:00:00Z",
    "Location": "The City Ground",
    "HomeTeam": "Nottingham Forest",
    "AwayTeam": "Luton",
    "Group": null,
    "HomeTeamScore": 2,
    "AwayTeamScore": 2
  },
  {
    "MatchNumber": 84,
    "RoundNumber": 9,
    "DateUtc": "2023-10-21 16:30:00Z",
    "Location": "Stamford Bridge",
    "HomeTeam": "Chelsea",
    "AwayTeam": "Arsenal",
    "Group": null,
    "HomeTeamScore": 2,
    "AwayTeamScore": 2
  },
  {
    "MatchNumber": 89,
    "RoundNumber": 9,
    "DateUtc": "2023-10-21 19:00:00Z",
    "Location": "Bramall Lane",
    "HomeTeam": "Sheffield Utd",
    "AwayTeam": "Man Utd",
    "Group": null,
    "HomeTeamScore": 1,
    "AwayTeamScore": 2
  },
  {
    "MatchNumber": 81,
    "RoundNumber": 9,
    "DateUtc": "2023-10-22 15:30:00Z",
    "Location": "Villa Park",
    "HomeTeam": "Aston Villa",
    "AwayTeam": "West Ham",
    "Group": null,
    "HomeTeamScore": 4,
    "AwayTeamScore": 1
  },
  {
    "MatchNumber": 90,
    "RoundNumber": 9,
    "DateUtc": "2023-10-23 19:00:00Z",
    "Location": "Tottenham Hotspur Stadium",
    "HomeTeam": "Spurs",
    "AwayTeam": "Fulham",
    "Group": null,
    "HomeTeamScore": 2,
    "AwayTeamScore": 0
  },
  {
    "MatchNumber": 96,
    "RoundNumber": 10,
    "DateUtc": "2023-10-27 19:00:00Z",
    "Location": "Selhurst Park",
    "HomeTeam": "Crystal Palace",
    "AwayTeam": "Spurs",
    "Group": null,
    "HomeTeamScore": 1,
    "AwayTeamScore": 2
  },
  {
    "MatchNumber": 95,
    "RoundNumber": 10,
    "DateUtc": "2023-10-28 11:30:00Z",
    "Location": "Stamford Bridge",
    "HomeTeam": "Chelsea",
    "AwayTeam": "Brentford",
    "Group": null,
    "HomeTeamScore": 0,
    "AwayTeamScore": 2
  },
  {
    "MatchNumber": 91,
    "RoundNumber": 10,
    "DateUtc": "2023-10-28 14:00:00Z",
    "Location": "Emirates Stadium",
    "HomeTeam": "Arsenal",
    "AwayTeam": "Sheffield Utd",
    "Group": null,
    "HomeTeamScore": 5,
    "AwayTeamScore": 0
  },
  {
    "MatchNumber": 93,
    "RoundNumber": 10,
    "DateUtc": "2023-10-28 14:00:00Z",
    "Location": "Vitality Stadium",
    "HomeTeam": "Bournemouth",
    "AwayTeam": "Burnley",
    "Group": null,
    "HomeTeamScore": 2,
    "AwayTeamScore": 1
  },
  {
    "MatchNumber": 100,
    "RoundNumber": 10,
    "DateUtc": "2023-10-28 16:30:00Z",
    "Location": "Molineux Stadium",
    "HomeTeam": "Wolves",
    "AwayTeam": "Newcastle",
    "Group": null,
    "HomeTeamScore": 2,
    "AwayTeamScore": 2
  },
  {
    "MatchNumber": 99,
    "RoundNumber": 10,
    "DateUtc": "2023-10-29 13:00:00Z",
    "Location": "London Stadium",
    "HomeTeam": "West Ham",
    "AwayTeam": "Everton",
    "Group": null,
    "HomeTeamScore": 0,
    "AwayTeamScore": 1
  },
  {
    "MatchNumber": 92,
    "RoundNumber": 10,
    "DateUtc": "2023-10-29 14:00:00Z",
    "Location": "Villa Park",
    "HomeTeam": "Aston Villa",
    "AwayTeam": "Luton",
    "Group": null,
    "HomeTeamScore": 3,
    "AwayTeamScore": 1
  },
  {
    "MatchNumber": 94,
    "RoundNumber": 10,
    "DateUtc": "2023-10-29 14:00:00Z",
    "Location": "Amex Stadium",
    "HomeTeam": "Brighton",
    "AwayTeam": "Fulham",
    "Group": null,
    "HomeTeamScore": 1,
    "AwayTeamScore": 1
  },
  {
    "MatchNumber": 97,
    "RoundNumber": 10,
    "DateUtc": "2023-10-29 14:00:00Z",
    "Location": "Anfield",
    "HomeTeam": "Liverpool",
    "AwayTeam": "Nottingham Forest",
    "Group": null,
    "HomeTeamScore": 3,
    "AwayTeamScore": 0
  },
  {
    "MatchNumber": 98,
    "RoundNumber": 10,
    "DateUtc": "2023-10-29 15:30:00Z",
    "Location": "Old Trafford",
    "HomeTeam": "Man Utd",
    "AwayTeam": "Man City",
    "Group": null,
    "HomeTeamScore": 0,
    "AwayTeamScore": 3
  },
  {
    "MatchNumber": 104,
    "RoundNumber": 11,
    "DateUtc": "2023-11-04 12:30:00Z",
    "Location": "Craven Cottage",
    "HomeTeam": "Fulham",
    "AwayTeam": "Man Utd",
    "Group": null,
    "HomeTeamScore": 0,
    "AwayTeamScore": 1
  },
  {
    "MatchNumber": 101,
    "RoundNumber": 11,
    "DateUtc": "2023-11-04 15:00:00Z",
    "Location": "Gtech Community Stadium",
    "HomeTeam": "Brentford",
    "AwayTeam": "West Ham",
    "Group": null,
    "HomeTeamScore": 3,
    "AwayTeamScore": 2
  },
  {
    "MatchNumber": 102,
    "RoundNumber": 11,
    "DateUtc": "2023-11-04 15:00:00Z",
    "Location": "Turf Moor",
    "HomeTeam": "Burnley",
    "AwayTeam": "Crystal Palace",
    "Group": null,
    "HomeTeamScore": 0,
    "AwayTeamScore": 2
  },
  {
    "MatchNumber": 103,
    "RoundNumber": 11,
    "DateUtc": "2023-11-04 15:00:00Z",
    "Location": "Goodison Park",
    "HomeTeam": "Everton",
    "AwayTeam": "Brighton",
    "Group": null,
    "HomeTeamScore": 1,
    "AwayTeamScore": 1
  },
  {
    "MatchNumber": 106,
    "RoundNumber": 11,
    "DateUtc": "2023-11-04 15:00:00Z",
    "Location": "Etihad Stadium",
    "HomeTeam": "Man City",
    "AwayTeam": "Bournemouth",
    "Group": null,
    "HomeTeamScore": 6,
    "AwayTeamScore": 1
  },
  {
    "MatchNumber": 109,
    "RoundNumber": 11,
    "DateUtc": "2023-11-04 15:00:00Z",
    "Location": "Bramall Lane",
    "HomeTeam": "Sheffield Utd",
    "AwayTeam": "Wolves",
    "Group": null,
    "HomeTeamScore": 2,
    "AwayTeamScore": 1
  },
  {
    "MatchNumber": 107,
    "RoundNumber": 11,
    "DateUtc": "2023-11-04 17:30:00Z",
    "Location": "St. James' Park",
    "HomeTeam": "Newcastle",
    "AwayTeam": "Arsenal",
    "Group": null,
    "HomeTeamScore": 1,
    "AwayTeamScore": 0
  },
  {
    "MatchNumber": 108,
    "RoundNumber": 11,
    "DateUtc": "2023-11-05 14:00:00Z",
    "Location": "The City Ground",
    "HomeTeam": "Nottingham Forest",
    "AwayTeam": "Aston Villa",
    "Group": null,
    "HomeTeamScore": 2,
    "AwayTeamScore": 0
  },
  {
    "MatchNumber": 105,
    "RoundNumber": 11,
    "DateUtc": "2023-11-05 16:30:00Z",
    "Location": "Kenilworth Road",
    "HomeTeam": "Luton",
    "AwayTeam": "Liverpool",
    "Group": null,
    "HomeTeamScore": 1,
    "AwayTeamScore": 1
  },
  {
    "MatchNumber": 110,
    "RoundNumber": 11,
    "DateUtc": "2023-11-06 20:00:00Z",
    "Location": "Tottenham Hotspur Stadium",
    "HomeTeam": "Spurs",
    "AwayTeam": "Chelsea",
    "Group": null,
    "HomeTeamScore": 1,
    "AwayTeamScore": 4
  },
  {
    "MatchNumber": 120,
    "RoundNumber": 12,
    "DateUtc": "2023-11-11 12:30:00Z",
    "Location": "Molineux Stadium",
    "HomeTeam": "Wolves",
    "AwayTeam": "Spurs",
    "Group": null,
    "HomeTeamScore": 2,
    "AwayTeamScore": 1
  },
  {
    "MatchNumber": 111,
    "RoundNumber": 12,
    "DateUtc": "2023-11-11 15:00:00Z",
    "Location": "Emirates Stadium",
    "HomeTeam": "Arsenal",
    "AwayTeam": "Burnley",
    "Group": null,
    "HomeTeamScore": 3,
    "AwayTeamScore": 1
  },
  {
    "MatchNumber": 116,
    "RoundNumber": 12,
    "DateUtc": "2023-11-11 15:00:00Z",
    "Location": "Selhurst Park",
    "HomeTeam": "Crystal Palace",
    "AwayTeam": "Everton",
    "Group": null,
    "HomeTeamScore": 2,
    "AwayTeamScore": 3
  },
  {
    "MatchNumber": 118,
    "RoundNumber": 12,
    "DateUtc": "2023-11-11 15:00:00Z",
    "Location": "Old Trafford",
    "HomeTeam": "Man Utd",
    "AwayTeam": "Luton",
    "Group": null,
    "HomeTeamScore": 1,
    "AwayTeamScore": 0
  },
  {
    "MatchNumber": 113,
    "RoundNumber": 12,
    "DateUtc": "2023-11-11 17:30:00Z",
    "Location": "Vitality Stadium",
    "HomeTeam": "Bournemouth",
    "AwayTeam": "Newcastle",
    "Group": null,
    "HomeTeamScore": 2,
    "AwayTeamScore": 0
  },
  {
    "MatchNumber": 112,
    "RoundNumber": 12,
    "DateUtc": "2023-11-12 14:00:00Z",
    "Location": "Villa Park",
    "HomeTeam": "Aston Villa",
    "AwayTeam": "Fulham",
    "Group": null,
    "HomeTeamScore": 3,
    "AwayTeamScore": 1
  },
  {
    "MatchNumber": 114,
    "RoundNumber": 12,
    "DateUtc": "2023-11-12 14:00:00Z",
    "Location": "Amex Stadium",
    "HomeTeam": "Brighton",
    "AwayTeam": "Sheffield Utd",
    "Group": null,
    "HomeTeamScore": 1,
    "AwayTeamScore": 1
  },
  {
    "MatchNumber": 117,
    "RoundNumber": 12,
    "DateUtc": "2023-11-12 14:00:00Z",
    "Location": "Anfield",
    "HomeTeam": "Liverpool",
    "AwayTeam": "Brentford",
    "Group": null,
    "HomeTeamScore": 3,
    "AwayTeamScore": 0
  },
  {
    "MatchNumber": 119,
    "RoundNumber": 12,
    "DateUtc": "2023-11-12 14:00:00Z",
    "Location": "London Stadium",
    "HomeTeam": "West Ham",
    "AwayTeam": "Nottingham Forest",
    "Group": null,
    "HomeTeamScore": 3,
    "AwayTeamScore": 2
  },
  {
    "MatchNumber": 115,
    "RoundNumber": 12,
    "DateUtc": "2023-11-12 16:30:00Z",
    "Location": "Stamford Bridge",
    "HomeTeam": "Chelsea",
    "AwayTeam": "Man City",
    "Group": null,
    "HomeTeamScore": 4,
    "AwayTeamScore": 4
  },
  {
    "MatchNumber": 126,
    "RoundNumber": 13,
    "DateUtc": "2023-11-25 12:30:00Z",
    "Location": "Etihad Stadium",
    "HomeTeam": "Man City",
    "AwayTeam": "Liverpool",
    "Group": null,
    "HomeTeamScore": 1,
    "AwayTeamScore": 1
  },
  {
    "MatchNumber": 122,
    "RoundNumber": 13,
    "DateUtc": "2023-11-25 15:00:00Z",
    "Location": "Turf Moor",
    "HomeTeam": "Burnley",
    "AwayTeam": "West Ham",
    "Group": null,
    "HomeTeamScore": 1,
    "AwayTeamScore": 2
  },
  {
    "MatchNumber": 125,
    "RoundNumber": 13,
    "DateUtc": "2023-11-25 15:00:00Z",
    "Location": "Kenilworth Road",
    "HomeTeam": "Luton",
    "AwayTeam": "Crystal Palace",
    "Group": null,
    "HomeTeamScore": 2,
    "AwayTeamScore": 1
  },
  {
    "MatchNumber": 127,
    "RoundNumber": 13,
    "DateUtc": "2023-11-25 15:00:00Z",
    "Location": "St. James' Park",
    "HomeTeam": "Newcastle",
    "AwayTeam": "Chelsea",
    "Group": null,
    "HomeTeamScore": 4,
    "AwayTeamScore": 1
  },
  {
    "MatchNumber": 128,
    "RoundNumber": 13,
    "DateUtc": "2023-11-25 15:00:00Z",
    "Location": "The City Ground",
    "HomeTeam": "Nottingham Forest",
    "AwayTeam": "Brighton",
    "Group": null,
    "HomeTeamScore": 2,
    "AwayTeamScore": 3
  },
  {
    "MatchNumber": 129,
    "RoundNumber": 13,
    "DateUtc": "2023-11-25 15:00:00Z",
    "Location": "Bramall Lane",
    "HomeTeam": "Sheffield Utd",
    "AwayTeam": "Bournemouth",
    "Group": null,
    "HomeTeamScore": 1,
    "AwayTeamScore": 3
  },
  {
    "MatchNumber": 121,
    "RoundNumber": 13,
    "DateUtc": "2023-11-25 17:30:00Z",
    "Location": "Gtech Community Stadium",
    "HomeTeam": "Brentford",
    "AwayTeam": "Arsenal",
    "Group": null,
    "HomeTeamScore": 0,
    "AwayTeamScore": 1
  },
  {
    "MatchNumber": 130,
    "RoundNumber": 13,
    "DateUtc": "2023-11-26 14:00:00Z",
    "Location": "Tottenham Hotspur Stadium",
    "HomeTeam": "Spurs",
    "AwayTeam": "Aston Villa",
    "Group": null,
    "HomeTeamScore": 1,
    "AwayTeamScore": 2
  },
  {
    "MatchNumber": 123,
    "RoundNumber": 13,
    "DateUtc": "2023-11-26 16:30:00Z",
    "Location": "Goodison Park",
    "HomeTeam": "Everton",
    "AwayTeam": "Man Utd",
    "Group": null,
    "HomeTeamScore": 0,
    "AwayTeamScore": 3
  },
  {
    "MatchNumber": 124,
    "RoundNumber": 13,
    "DateUtc": "2023-11-27 20:00:00Z",
    "Location": "Craven Cottage",
    "HomeTeam": "Fulham",
    "AwayTeam": "Wolves",
    "Group": null,
    "HomeTeamScore": 3,
    "AwayTeamScore": 2
  },
  {
    "MatchNumber": 131,
    "RoundNumber": 14,
    "DateUtc": "2023-12-02 15:00:00Z",
    "Location": "Emirates Stadium",
    "HomeTeam": "Arsenal",
    "AwayTeam": "Wolves",
    "Group": null,
    "HomeTeamScore": 2,
    "AwayTeamScore": 1
  },
  {
    "MatchNumber": 133,
    "RoundNumber": 14,
    "DateUtc": "2023-12-02 15:00:00Z",
    "Location": "Gtech Community Stadium",
    "HomeTeam": "Brentford",
    "AwayTeam": "Luton",
    "Group": null,
    "HomeTeamScore": 3,
    "AwayTeamScore": 1
  },
  {
    "MatchNumber": 134,
    "RoundNumber": 14,
    "DateUtc": "2023-12-02 15:00:00Z",
    "Location": "Turf Moor",
    "HomeTeam": "Burnley",
    "AwayTeam": "Sheffield Utd",
    "Group": null,
    "HomeTeamScore": 5,
    "AwayTeamScore": 0
  },
  {
    "MatchNumber": 139,
    "RoundNumber": 14,
    "DateUtc": "2023-12-02 17:30:00Z",
    "Location": "The City Ground",
    "HomeTeam": "Nottingham Forest",
    "AwayTeam": "Everton",
    "Group": null,
    "HomeTeamScore": 0,
    "AwayTeamScore": 1
  },
  {
    "MatchNumber": 138,
    "RoundNumber": 14,
    "DateUtc": "2023-12-02 20:00:00Z",
    "Location": "St. James' Park",
    "HomeTeam": "Newcastle",
    "AwayTeam": "Man Utd",
    "Group": null,
    "HomeTeamScore": 1,
    "AwayTeamScore": 0
  },
  {
    "MatchNumber": 132,
    "RoundNumber": 14,
    "DateUtc": "2023-12-03 14:00:00Z",
    "Location": "Vitality Stadium",
    "HomeTeam": "Bournemouth",
    "AwayTeam": "Aston Villa",
    "Group": null,
    "HomeTeamScore": 2,
    "AwayTeamScore": 2
  },
  {
    "MatchNumber": 135,
    "RoundNumber": 14,
    "DateUtc": "2023-12-03 14:00:00Z",
    "Location": "Stamford Bridge",
    "HomeTeam": "Chelsea",
    "AwayTeam": "Brighton",
    "Group": null,
    "HomeTeamScore": 3,
    "AwayTeamScore": 2
  },
  {
    "MatchNumber": 136,
    "RoundNumber": 14,
    "DateUtc": "2023-12-03 14:00:00Z",
    "Location": "Anfield",
    "HomeTeam": "Liverpool",
    "AwayTeam": "Fulham",
    "Group": null,
    "HomeTeamScore": 4,
    "AwayTeamScore": 3
  },
  {
    "MatchNumber": 140,
    "RoundNumber": 14,
    "DateUtc": "2023-12-03 14:00:00Z",
    "Location": "London Stadium",
    "HomeTeam": "West Ham",
    "AwayTeam": "Crystal Palace",
    "Group": null,
    "HomeTeamScore": 1,
    "AwayTeamScore": 1
  },
  {
    "MatchNumber": 137,
    "RoundNumber": 14,
    "DateUtc": "2023-12-03 16:30:00Z",
    "Location": "Etihad Stadium",
    "HomeTeam": "Man City",
    "AwayTeam": "Spurs",
    "Group": null,
    "HomeTeamScore": 3,
    "AwayTeamScore": 3
  },
  {
    "MatchNumber": 148,
    "RoundNumber": 15,
    "DateUtc": "2023-12-05 19:30:00Z",
    "Location": "Molineux Stadium",
    "HomeTeam": "Wolves",
    "AwayTeam": "Burnley",
    "Group": null,
    "HomeTeamScore": 1,
    "AwayTeamScore": 0
  },
  {
    "MatchNumber": 145,
    "RoundNumber": 15,
    "DateUtc": "2023-12-05 20:15:00Z",
    "Location": "Kenilworth Road",
    "HomeTeam": "Luton",
    "AwayTeam": "Arsenal",
    "Group": null,
    "HomeTeamScore": 3,
    "AwayTeamScore": 4
  },
  {
    "MatchNumber": 142,
    "RoundNumber": 15,
    "DateUtc": "2023-12-06 19:30:00Z",
    "Location": "Amex Stadium",
    "HomeTeam": "Brighton",
    "AwayTeam": "Brentford",
    "Group": null,
    "HomeTeamScore": 2,
    "AwayTeamScore": 1
  },
  {
    "MatchNumber": 144,
    "RoundNumber": 15,
    "DateUtc": "2023-12-06 19:30:00Z",
    "Location": "Craven Cottage",
    "HomeTeam": "Fulham",
    "AwayTeam": "Nottingham Forest",
    "Group": null,
    "HomeTeamScore": 5,
    "AwayTeamScore": 0
  },
  {
    "MatchNumber": 146,
    "RoundNumber": 15,
    "DateUtc": "2023-12-06 19:30:00Z",
    "Location": "Bramall Lane",
    "HomeTeam": "Sheffield Utd",
    "AwayTeam": "Liverpool",
    "Group": null,
    "HomeTeamScore": 0,
    "AwayTeamScore": 2
  },
  {
    "MatchNumber": 149,
    "RoundNumber": 15,
    "DateUtc": "2023-12-06 19:30:00Z",
    "Location": "Selhurst Park",
    "HomeTeam": "Crystal Palace",
    "AwayTeam": "Bournemouth",
    "Group": null,
    "HomeTeamScore": 0,
    "AwayTeamScore": 2
  },
  {
    "MatchNumber": 141,
    "RoundNumber": 15,
    "DateUtc": "2023-12-06 20:15:00Z",
    "Location": "Villa Park",
    "HomeTeam": "Aston Villa",
    "AwayTeam": "Man City",
    "Group": null,
    "HomeTeamScore": 1,
    "AwayTeamScore": 0
  },
  {
    "MatchNumber": 150,
    "RoundNumber": 15,
    "DateUtc": "2023-12-06 20:15:00Z",
    "Location": "Old Trafford",
    "HomeTeam": "Man Utd",
    "AwayTeam": "Chelsea",
    "Group": null,
    "HomeTeamScore": 2,
    "AwayTeamScore": 1
  },
  {
    "MatchNumber": 143,
    "RoundNumber": 15,
    "DateUtc": "2023-12-07 19:30:00Z",
    "Location": "Goodison Park",
    "HomeTeam": "Everton",
    "AwayTeam": "Newcastle",
    "Group": null,
    "HomeTeamScore": 3,
    "AwayTeamScore": 0
  },
  {
    "MatchNumber": 147,
    "RoundNumber": 15,
    "DateUtc": "2023-12-07 20:15:00Z",
    "Location": "Tottenham Hotspur Stadium",
    "HomeTeam": "Spurs",
    "AwayTeam": "West Ham",
    "Group": null,
    "HomeTeamScore": 1,
    "AwayTeamScore": 2
  },
  {
    "MatchNumber": 153,
    "RoundNumber": 16,
    "DateUtc": "2023-12-09 12:30:00Z",
    "Location": "Selhurst Park",
    "HomeTeam": "Crystal Palace",
    "AwayTeam": "Liverpool",
    "Group": null,
    "HomeTeamScore": 1,
    "AwayTeamScore": 2
  },
  {
    "MatchNumber": 152,
    "RoundNumber": 16,
    "DateUtc": "2023-12-09 15:00:00Z",
    "Location": "Amex Stadium",
    "HomeTeam": "Brighton",
    "AwayTeam": "Burnley",
    "Group": null,
    "HomeTeamScore": 1,
    "AwayTeamScore": 1
  },
  {
    "MatchNumber": 157,
    "RoundNumber": 16,
    "DateUtc": "2023-12-09 15:00:00Z",
    "Location": "Old Trafford",
    "HomeTeam": "Man Utd",
    "AwayTeam": "Bournemouth",
    "Group": null,
    "HomeTeamScore": 0,
    "AwayTeamScore": 3
  },
  {
    "MatchNumber": 158,
    "RoundNumber": 16,
    "DateUtc": "2023-12-09 15:00:00Z",
    "Location": "Bramall Lane",
    "HomeTeam": "Sheffield Utd",
    "AwayTeam": "Brentford",
    "Group": null,
    "HomeTeamScore": 1,
    "AwayTeamScore": 0
  },
  {
    "MatchNumber": 160,
    "RoundNumber": 16,
    "DateUtc": "2023-12-09 15:00:00Z",
    "Location": "Molineux Stadium",
    "HomeTeam": "Wolves",
    "AwayTeam": "Nottingham Forest",
    "Group": null,
    "HomeTeamScore": 1,
    "AwayTeamScore": 1
  },
  {
    "MatchNumber": 151,
    "RoundNumber": 16,
    "DateUtc": "2023-12-09 17:30:00Z",
    "Location": "Villa Park",
    "HomeTeam": "Aston Villa",
    "AwayTeam": "Arsenal",
    "Group": null,
    "HomeTeamScore": 1,
    "AwayTeamScore": 0
  },
  {
    "MatchNumber": 154,
    "RoundNumber": 16,
    "DateUtc": "2023-12-10 14:00:00Z",
    "Location": "Goodison Park",
    "HomeTeam": "Everton",
    "AwayTeam": "Chelsea",
    "Group": null,
    "HomeTeamScore": 2,
    "AwayTeamScore": 0
  },
  {
    "MatchNumber": 155,
    "RoundNumber": 16,
    "DateUtc": "2023-12-10 14:00:00Z",
    "Location": "Craven Cottage",
    "HomeTeam": "Fulham",
    "AwayTeam": "West Ham",
    "Group": null,
    "HomeTeamScore": 5,
    "AwayTeamScore": 0
  },
  {
    "MatchNumber": 156,
    "RoundNumber": 16,
    "DateUtc": "2023-12-10 14:00:00Z",
    "Location": "Kenilworth Road",
    "HomeTeam": "Luton",
    "AwayTeam": "Man City",
    "Group": null,
    "HomeTeamScore": 1,
    "AwayTeamScore": 2
  },
  {
    "MatchNumber": 159,
    "RoundNumber": 16,
    "DateUtc": "2023-12-10 16:30:00Z",
    "Location": "Tottenham Hotspur Stadium",
    "HomeTeam": "Spurs",
    "AwayTeam": "Newcastle",
    "Group": null,
    "HomeTeamScore": 4,
    "AwayTeamScore": 1
  },
  {
    "MatchNumber": 169,
    "RoundNumber": 17,
    "DateUtc": "2023-12-15 20:00:00Z",
    "Location": "The City Ground",
    "HomeTeam": "Nottingham Forest",
    "AwayTeam": "Spurs",
    "Group": null,
    "HomeTeamScore": 0,
    "AwayTeamScore": 2
  },
  {
    "MatchNumber": 162,
    "RoundNumber": 17,
    "DateUtc": "2023-12-16 15:00:00Z",
    "Location": "Vitality Stadium",
    "HomeTeam": "Bournemouth",
    "AwayTeam": "Luton",
    "Group": null,
    "HomeTeamScore": null,
    "AwayTeamScore": null
  },
  {
    "MatchNumber": 165,
    "RoundNumber": 17,
    "DateUtc": "2023-12-16 15:00:00Z",
    "Location": "Stamford Bridge",
    "HomeTeam": "Chelsea",
    "AwayTeam": "Sheffield Utd",
    "Group": null,
    "HomeTeamScore": 2,
    "AwayTeamScore": 0
  },
  {
    "MatchNumber": 167,
    "RoundNumber": 17,
    "DateUtc": "2023-12-16 15:00:00Z",
    "Location": "Etihad Stadium",
    "HomeTeam": "Man City",
    "AwayTeam": "Crystal Palace",
    "Group": null,
    "HomeTeamScore": 2,
    "AwayTeamScore": 2
  },
  {
    "MatchNumber": 168,
    "RoundNumber": 17,
    "DateUtc": "2023-12-16 15:00:00Z",
    "Location": "St. James' Park",
    "HomeTeam": "Newcastle",
    "AwayTeam": "Fulham",
    "Group": null,
    "HomeTeamScore": 3,
    "AwayTeamScore": 0
  },
  {
    "MatchNumber": 164,
    "RoundNumber": 17,
    "DateUtc": "2023-12-16 17:30:00Z",
    "Location": "Turf Moor",
    "HomeTeam": "Burnley",
    "AwayTeam": "Everton",
    "Group": null,
    "HomeTeamScore": 0,
    "AwayTeamScore": 2
  },
  {
    "MatchNumber": 161,
    "RoundNumber": 17,
    "DateUtc": "2023-12-17 14:00:00Z",
    "Location": "Emirates Stadium",
    "HomeTeam": "Arsenal",
    "AwayTeam": "Brighton",
    "Group": null,
    "HomeTeamScore": 2,
    "AwayTeamScore": 0
  },
  {
    "MatchNumber": 163,
    "RoundNumber": 17,
    "DateUtc": "2023-12-17 14:00:00Z",
    "Location": "Gtech Community Stadium",
    "HomeTeam": "Brentford",
    "AwayTeam": "Aston Villa",
    "Group": null,
    "HomeTeamScore": 1,
    "AwayTeamScore": 2
  },
  {
    "MatchNumber": 170,
    "RoundNumber": 17,
    "DateUtc": "2023-12-17 14:00:00Z",
    "Location": "London Stadium",
    "HomeTeam": "West Ham",
    "AwayTeam": "Wolves",
    "Group": null,
    "HomeTeamScore": 3,
    "AwayTeamScore": 0
  },
  {
    "MatchNumber": 166,
    "RoundNumber": 17,
    "DateUtc": "2023-12-17 16:30:00Z",
    "Location": "Anfield",
    "HomeTeam": "Liverpool",
    "AwayTeam": "Man Utd",
    "Group": null,
    "HomeTeamScore": 0,
    "AwayTeamScore": 0
  },
  {
    "MatchNumber": 172,
    "RoundNumber": 18,
    "DateUtc": "2023-12-21 20:00:00Z",
    "Location": "Selhurst Park",
    "HomeTeam": "Crystal Palace",
    "AwayTeam": "Brighton",
    "Group": null,
    "HomeTeamScore": null,
    "AwayTeamScore": null
  },
  {
    "MatchNumber": 171,
    "RoundNumber": 18,
    "DateUtc": "2023-12-22 20:00:00Z",
    "Location": "Villa Park",
    "HomeTeam": "Aston Villa",
    "AwayTeam": "Sheffield Utd",
    "Group": null,
    "HomeTeamScore": null,
    "AwayTeamScore": null
  },
  {
    "MatchNumber": 179,
    "RoundNumber": 18,
    "DateUtc": "2023-12-23 12:30:00Z",
    "Location": "London Stadium",
    "HomeTeam": "West Ham",
    "AwayTeam": "Man Utd",
    "Group": null,
    "HomeTeamScore": null,
    "AwayTeamScore": null
  },
  {
    "MatchNumber": 173,
    "RoundNumber": 18,
    "DateUtc": "2023-12-23 15:00:00Z",
    "Location": "Craven Cottage",
    "HomeTeam": "Fulham",
    "AwayTeam": "Burnley",
    "Group": null,
    "HomeTeamScore": null,
    "AwayTeamScore": null
  },
  {
    "MatchNumber": 175,
    "RoundNumber": 18,
    "DateUtc": "2023-12-23 15:00:00Z",
    "Location": "Kenilworth Road",
    "HomeTeam": "Luton",
    "AwayTeam": "Newcastle",
    "Group": null,
    "HomeTeamScore": null,
    "AwayTeamScore": null
  },
  {
    "MatchNumber": 176,
    "RoundNumber": 18,
    "DateUtc": "2023-12-23 15:00:00Z",
    "Location": "Etihad Stadium",
    "HomeTeam": "Man City",
    "AwayTeam": "Brentford",
    "Group": null,
    "HomeTeamScore": null,
    "AwayTeamScore": null
  },
  {
    "MatchNumber": 177,
    "RoundNumber": 18,
    "DateUtc": "2023-12-23 15:00:00Z",
    "Location": "The City Ground",
    "HomeTeam": "Nottingham Forest",
    "AwayTeam": "Bournemouth",
    "Group": null,
    "HomeTeamScore": null,
    "AwayTeamScore": null
  },
  {
    "MatchNumber": 178,
    "RoundNumber": 18,
    "DateUtc": "2023-12-23 15:00:00Z",
    "Location": "Tottenham Hotspur Stadium",
    "HomeTeam": "Spurs",
    "AwayTeam": "Everton",
    "Group": null,
    "HomeTeamScore": null,
    "AwayTeamScore": null
  },
  {
    "MatchNumber": 174,
    "RoundNumber": 18,
    "DateUtc": "2023-12-23 17:30:00Z",
    "Location": "Anfield",
    "HomeTeam": "Liverpool",
    "AwayTeam": "Arsenal",
    "Group": null,
    "HomeTeamScore": null,
    "AwayTeamScore": null
  },
  {
    "MatchNumber": 180,
    "RoundNumber": 18,
    "DateUtc": "2023-12-24 13:00:00Z",
    "Location": "Molineux Stadium",
    "HomeTeam": "Wolves",
    "AwayTeam": "Chelsea",
    "Group": null,
    "HomeTeamScore": null,
    "AwayTeamScore": null
  },
  {
    "MatchNumber": 189,
    "RoundNumber": 19,
    "DateUtc": "2023-12-26 12:30:00Z",
    "Location": "St. James' Park",
    "HomeTeam": "Newcastle",
    "AwayTeam": "Nottingham Forest",
    "Group": null,
    "HomeTeamScore": null,
    "AwayTeamScore": null
  },
  {
    "MatchNumber": 182,
    "RoundNumber": 19,
    "DateUtc": "2023-12-26 15:00:00Z",
    "Location": "Vitality Stadium",
    "HomeTeam": "Bournemouth",
    "AwayTeam": "Fulham",
    "Group": null,
    "HomeTeamScore": null,
    "AwayTeamScore": null
  },
  {
    "MatchNumber": 190,
    "RoundNumber": 19,
    "DateUtc": "2023-12-26 15:00:00Z",
    "Location": "Bramall Lane",
    "HomeTeam": "Sheffield Utd",
    "AwayTeam": "Luton",
    "Group": null,
    "HomeTeamScore": null,
    "AwayTeamScore": null
  },
  {
    "MatchNumber": 185,
    "RoundNumber": 19,
    "DateUtc": "2023-12-26 17:30:00Z",
    "Location": "Turf Moor",
    "HomeTeam": "Burnley",
    "AwayTeam": "Liverpool",
    "Group": null,
    "HomeTeamScore": null,
    "AwayTeamScore": null
  },
  {
    "MatchNumber": 188,
    "RoundNumber": 19,
    "DateUtc": "2023-12-26 20:00:00Z",
    "Location": "Old Trafford",
    "HomeTeam": "Man Utd",
    "AwayTeam": "Aston Villa",
    "Group": null,
    "HomeTeamScore": null,
    "AwayTeamScore": null
  },
  {
    "MatchNumber": 183,
    "RoundNumber": 19,
    "DateUtc": "2023-12-27 19:30:00Z",
    "Location": "Gtech Community Stadium",
    "HomeTeam": "Brentford",
    "AwayTeam": "Wolves",
    "Group": null,
    "HomeTeamScore": null,
    "AwayTeamScore": null
  },
  {
    "MatchNumber": 186,
    "RoundNumber": 19,
    "DateUtc": "2023-12-27 19:30:00Z",
    "Location": "Stamford Bridge",
    "HomeTeam": "Chelsea",
    "AwayTeam": "Crystal Palace",
    "Group": null,
    "HomeTeamScore": null,
    "AwayTeamScore": null
  },
  {
    "MatchNumber": 187,
    "RoundNumber": 19,
    "DateUtc": "2023-12-27 20:15:00Z",
    "Location": "Goodison Park",
    "HomeTeam": "Everton",
    "AwayTeam": "Man City",
    "Group": null,
    "HomeTeamScore": null,
    "AwayTeamScore": null
  },
  {
    "MatchNumber": 184,
    "RoundNumber": 19,
    "DateUtc": "2023-12-28 19:30:00Z",
    "Location": "Amex Stadium",
    "HomeTeam": "Brighton",
    "AwayTeam": "Spurs",
    "Group": null,
    "HomeTeamScore": null,
    "AwayTeamScore": null
  },
  {
    "MatchNumber": 181,
    "RoundNumber": 19,
    "DateUtc": "2023-12-28 20:15:00Z",
    "Location": "Emirates Stadium",
    "HomeTeam": "Arsenal",
    "AwayTeam": "West Ham",
    "Group": null,
    "HomeTeamScore": null,
    "AwayTeamScore": null
  },
  {
    "MatchNumber": 195,
    "RoundNumber": 20,
    "DateUtc": "2023-12-30 12:30:00Z",
    "Location": "Kenilworth Road",
    "HomeTeam": "Luton",
    "AwayTeam": "Chelsea",
    "Group": null,
    "HomeTeamScore": null,
    "AwayTeamScore": null
  },
  {
    "MatchNumber": 191,
    "RoundNumber": 20,
    "DateUtc": "2023-12-30 15:00:00Z",
    "Location": "Villa Park",
    "HomeTeam": "Aston Villa",
    "AwayTeam": "Burnley",
    "Group": null,
    "HomeTeamScore": null,
    "AwayTeamScore": null
  },
  {
    "MatchNumber": 192,
    "RoundNumber": 20,
    "DateUtc": "2023-12-30 15:00:00Z",
    "Location": "Selhurst Park",
    "HomeTeam": "Crystal Palace",
    "AwayTeam": "Brentford",
    "Group": null,
    "HomeTeamScore": null,
    "AwayTeamScore": null
  },
  {
    "MatchNumber": 196,
    "RoundNumber": 20,
    "DateUtc": "2023-12-30 15:00:00Z",
    "Location": "Etihad Stadium",
    "HomeTeam": "Man City",
    "AwayTeam": "Sheffield Utd",
    "Group": null,
    "HomeTeamScore": null,
    "AwayTeamScore": null
  },
  {
    "MatchNumber": 200,
    "RoundNumber": 20,
    "DateUtc": "2023-12-30 15:00:00Z",
    "Location": "Molineux Stadium",
    "HomeTeam": "Wolves",
    "AwayTeam": "Everton",
    "Group": null,
    "HomeTeamScore": null,
    "AwayTeamScore": null
  },
  {
    "MatchNumber": 197,
    "RoundNumber": 20,
    "DateUtc": "2023-12-30 17:30:00Z",
    "Location": "The City Ground",
    "HomeTeam": "Nottingham Forest",
    "AwayTeam": "Man Utd",
    "Group": null,
    "HomeTeamScore": null,
    "AwayTeamScore": null
  },
  {
    "MatchNumber": 193,
    "RoundNumber": 20,
    "DateUtc": "2023-12-31 14:00:00Z",
    "Location": "Craven Cottage",
    "HomeTeam": "Fulham",
    "AwayTeam": "Arsenal",
    "Group": null,
    "HomeTeamScore": null,
    "AwayTeamScore": null
  },
  {
    "MatchNumber": 198,
    "RoundNumber": 20,
    "DateUtc": "2023-12-31 14:00:00Z",
    "Location": "Tottenham Hotspur Stadium",
    "HomeTeam": "Spurs",
    "AwayTeam": "Bournemouth",
    "Group": null,
    "HomeTeamScore": null,
    "AwayTeamScore": null
  },
  {
    "MatchNumber": 194,
    "RoundNumber": 20,
    "DateUtc": "2024-01-01 20:00:00Z",
    "Location": "Anfield",
    "HomeTeam": "Liverpool",
    "AwayTeam": "Newcastle",
    "Group": null,
    "HomeTeamScore": null,
    "AwayTeamScore": null
  },
  {
    "MatchNumber": 199,
    "RoundNumber": 20,
    "DateUtc": "2024-01-02 19:30:00Z",
    "Location": "London Stadium",
    "HomeTeam": "West Ham",
    "AwayTeam": "Brighton",
    "Group": null,
    "HomeTeamScore": null,
    "AwayTeamScore": null
  },
  {
    "MatchNumber": 206,
    "RoundNumber": 21,
    "DateUtc": "2024-01-13 12:30:00Z",
    "Location": "Stamford Bridge",
    "HomeTeam": "Chelsea",
    "AwayTeam": "Fulham",
    "Group": null,
    "HomeTeamScore": null,
    "AwayTeamScore": null
  },
  {
    "MatchNumber": 209,
    "RoundNumber": 21,
    "DateUtc": "2024-01-13 17:30:00Z",
    "Location": "St. James' Park",
    "HomeTeam": "Newcastle",
    "AwayTeam": "Man City",
    "Group": null,
    "HomeTeamScore": null,
    "AwayTeamScore": null
  },
  {
    "MatchNumber": 207,
    "RoundNumber": 21,
    "DateUtc": "2024-01-14 14:00:00Z",
    "Location": "Goodison Park",
    "HomeTeam": "Everton",
    "AwayTeam": "Aston Villa",
    "Group": null,
    "HomeTeamScore": null,
    "AwayTeamScore": null
  },
  {
    "MatchNumber": 208,
    "RoundNumber": 21,
    "DateUtc": "2024-01-14 16:30:00Z",
    "Location": "Old Trafford",
    "HomeTeam": "Man Utd",
    "AwayTeam": "Spurs",
    "Group": null,
    "HomeTeamScore": null,
    "AwayTeamScore": null
  },
  {
    "MatchNumber": 205,
    "RoundNumber": 21,
    "DateUtc": "2024-01-15 19:45:00Z",
    "Location": "Turf Moor",
    "HomeTeam": "Burnley",
    "AwayTeam": "Luton",
    "Group": null,
    "HomeTeamScore": null,
    "AwayTeamScore": null
  },
  {
    "MatchNumber": 201,
    "RoundNumber": 21,
    "DateUtc": "2024-01-20 12:30:00Z",
    "Location": "Emirates Stadium",
    "HomeTeam": "Arsenal",
    "AwayTeam": "Crystal Palace",
    "Group": null,
    "HomeTeamScore": null,
    "AwayTeamScore": null
  },
  {
    "MatchNumber": 203,
    "RoundNumber": 21,
    "DateUtc": "2024-01-20 17:30:00Z",
    "Location": "Gtech Community Stadium",
    "HomeTeam": "Brentford",
    "AwayTeam": "Nottingham Forest",
    "Group": null,
    "HomeTeamScore": null,
    "AwayTeamScore": null
  },
  {
    "MatchNumber": 210,
    "RoundNumber": 21,
    "DateUtc": "2024-01-21 14:00:00Z",
    "Location": "Bramall Lane",
    "HomeTeam": "Sheffield Utd",
    "AwayTeam": "West Ham",
    "Group": null,
    "HomeTeamScore": null,
    "AwayTeamScore": null
  },
  {
    "MatchNumber": 202,
    "RoundNumber": 21,
    "DateUtc": "2024-01-21 16:30:00Z",
    "Location": "Vitality Stadium",
    "HomeTeam": "Bournemouth",
    "AwayTeam": "Liverpool",
    "Group": null,
    "HomeTeamScore": null,
    "AwayTeamScore": null
  },
  {
    "MatchNumber": 204,
    "RoundNumber": 21,
    "DateUtc": "2024-01-22 19:45:00Z",
    "Location": "Amex Stadium",
    "HomeTeam": "Brighton",
    "AwayTeam": "Wolves",
    "Group": null,
    "HomeTeamScore": null,
    "AwayTeamScore": null
  },
  {
    "MatchNumber": 214,
    "RoundNumber": 22,
    "DateUtc": "2024-01-30 19:30:00Z",
    "Location": "The City Ground",
    "HomeTeam": "Nottingham Forest",
    "AwayTeam": "Arsenal",
    "Group": null,
    "HomeTeamScore": null,
    "AwayTeamScore": null
  },
  {
    "MatchNumber": 212,
    "RoundNumber": 22,
    "DateUtc": "2024-01-30 19:45:00Z",
    "Location": "Craven Cottage",
    "HomeTeam": "Fulham",
    "AwayTeam": "Everton",
    "Group": null,
    "HomeTeamScore": null,
    "AwayTeamScore": null
  },
  {
    "MatchNumber": 213,
    "RoundNumber": 22,
    "DateUtc": "2024-01-30 19:45:00Z",
    "Location": "Kenilworth Road",
    "HomeTeam": "Luton",
    "AwayTeam": "Brighton",
    "Group": null,
    "HomeTeamScore": null,
    "AwayTeamScore": null
  },
  {
    "MatchNumber": 218,
    "RoundNumber": 22,
    "DateUtc": "2024-01-30 20:00:00Z",
    "Location": "Selhurst Park",
    "HomeTeam": "Crystal Palace",
    "AwayTeam": "Sheffield Utd",
    "Group": null,
    "HomeTeamScore": null,
    "AwayTeamScore": null
  },
  {
    "MatchNumber": 211,
    "RoundNumber": 22,
    "DateUtc": "2024-01-30 20:15:00Z",
    "Location": "Villa Park",
    "HomeTeam": "Aston Villa",
    "AwayTeam": "Newcastle",
    "Group": null,
    "HomeTeamScore": null,
    "AwayTeamScore": null
  },
  {
    "MatchNumber": 215,
    "RoundNumber": 22,
    "DateUtc": "2024-01-31 19:30:00Z",
    "Location": "Tottenham Hotspur Stadium",
    "HomeTeam": "Spurs",
    "AwayTeam": "Brentford",
    "Group": null,
    "HomeTeamScore": null,
    "AwayTeamScore": null
  },
  {
    "MatchNumber": 220,
    "RoundNumber": 22,
    "DateUtc": "2024-01-31 19:30:00Z",
    "Location": "Etihad Stadium",
    "HomeTeam": "Man City",
    "AwayTeam": "Burnley",
    "Group": null,
    "HomeTeamScore": null,
    "AwayTeamScore": null
  },
  {
    "MatchNumber": 219,
    "RoundNumber": 22,
    "DateUtc": "2024-01-31 20:15:00Z",
    "Location": "Anfield",
    "HomeTeam": "Liverpool",
    "AwayTeam": "Chelsea",
    "Group": null,
    "HomeTeamScore": null,
    "AwayTeamScore": null
  },
  {
    "MatchNumber": 216,
    "RoundNumber": 22,
    "DateUtc": "2024-02-01 19:30:00Z",
    "Location": "London Stadium",
    "HomeTeam": "West Ham",
    "AwayTeam": "Bournemouth",
    "Group": null,
    "HomeTeamScore": null,
    "AwayTeamScore": null
  },
  {
    "MatchNumber": 217,
    "RoundNumber": 22,
    "DateUtc": "2024-02-01 20:15:00Z",
    "Location": "Molineux Stadium",
    "HomeTeam": "Wolves",
    "AwayTeam": "Man Utd",
    "Group": null,
    "HomeTeamScore": null,
    "AwayTeamScore": null
  },
  {
    "MatchNumber": 221,
    "RoundNumber": 23,
    "DateUtc": "2024-02-03 15:00:00Z",
    "Location": "Emirates Stadium",
    "HomeTeam": "Arsenal",
    "AwayTeam": "Liverpool",
    "Group": null,
    "HomeTeamScore": null,
    "AwayTeamScore": null
  },
  {
    "MatchNumber": 222,
    "RoundNumber": 23,
    "DateUtc": "2024-02-03 15:00:00Z",
    "Location": "Vitality Stadium",
    "HomeTeam": "Bournemouth",
    "AwayTeam": "Nottingham Forest",
    "Group": null,
    "HomeTeamScore": null,
    "AwayTeamScore": null
  },
  {
    "MatchNumber": 223,
    "RoundNumber": 23,
    "DateUtc": "2024-02-03 15:00:00Z",
    "Location": "Gtech Community Stadium",
    "HomeTeam": "Brentford",
    "AwayTeam": "Man City",
    "Group": null,
    "HomeTeamScore": null,
    "AwayTeamScore": null
  },
  {
    "MatchNumber": 224,
    "RoundNumber": 23,
    "DateUtc": "2024-02-03 15:00:00Z",
    "Location": "Amex Stadium",
    "HomeTeam": "Brighton",
    "AwayTeam": "Crystal Palace",
    "Group": null,
    "HomeTeamScore": null,
    "AwayTeamScore": null
  },
  {
    "MatchNumber": 225,
    "RoundNumber": 23,
    "DateUtc": "2024-02-03 15:00:00Z",
    "Location": "Turf Moor",
    "HomeTeam": "Burnley",
    "AwayTeam": "Fulham",
    "Group": null,
    "HomeTeamScore": null,
    "AwayTeamScore": null
  },
  {
    "MatchNumber": 226,
    "RoundNumber": 23,
    "DateUtc": "2024-02-03 15:00:00Z",
    "Location": "Stamford Bridge",
    "HomeTeam": "Chelsea",
    "AwayTeam": "Wolves",
    "Group": null,
    "HomeTeamScore": null,
    "AwayTeamScore": null
  },
  {
    "MatchNumber": 227,
    "RoundNumber": 23,
    "DateUtc": "2024-02-03 15:00:00Z",
    "Location": "Goodison Park",
    "HomeTeam": "Everton",
    "AwayTeam": "Spurs",
    "Group": null,
    "HomeTeamScore": null,
    "AwayTeamScore": null
  },
  {
    "MatchNumber": 228,
    "RoundNumber": 23,
    "DateUtc": "2024-02-03 15:00:00Z",
    "Location": "Old Trafford",
    "HomeTeam": "Man Utd",
    "AwayTeam": "West Ham",
    "Group": null,
    "HomeTeamScore": null,
    "AwayTeamScore": null
  },
  {
    "MatchNumber": 229,
    "RoundNumber": 23,
    "DateUtc": "2024-02-03 15:00:00Z",
    "Location": "St. James' Park",
    "HomeTeam": "Newcastle",
    "AwayTeam": "Luton",
    "Group": null,
    "HomeTeamScore": null,
    "AwayTeamScore": null
  },
  {
    "MatchNumber": 230,
    "RoundNumber": 23,
    "DateUtc": "2024-02-03 15:00:00Z",
    "Location": "Bramall Lane",
    "HomeTeam": "Sheffield Utd",
    "AwayTeam": "Aston Villa",
    "Group": null,
    "HomeTeamScore": null,
    "AwayTeamScore": null
  },
  {
    "MatchNumber": 231,
    "RoundNumber": 24,
    "DateUtc": "2024-02-10 15:00:00Z",
    "Location": "Villa Park",
    "HomeTeam": "Aston Villa",
    "AwayTeam": "Man Utd",
    "Group": null,
    "HomeTeamScore": null,
    "AwayTeamScore": null
  },
  {
    "MatchNumber": 232,
    "RoundNumber": 24,
    "DateUtc": "2024-02-10 15:00:00Z",
    "Location": "Selhurst Park",
    "HomeTeam": "Crystal Palace",
    "AwayTeam": "Chelsea",
    "Group": null,
    "HomeTeamScore": null,
    "AwayTeamScore": null
  },
  {
    "MatchNumber": 233,
    "RoundNumber": 24,
    "DateUtc": "2024-02-10 15:00:00Z",
    "Location": "Craven Cottage",
    "HomeTeam": "Fulham",
    "AwayTeam": "Bournemouth",
    "Group": null,
    "HomeTeamScore": null,
    "AwayTeamScore": null
  },
  {
    "MatchNumber": 234,
    "RoundNumber": 24,
    "DateUtc": "2024-02-10 15:00:00Z",
    "Location": "Anfield",
    "HomeTeam": "Liverpool",
    "AwayTeam": "Burnley",
    "Group": null,
    "HomeTeamScore": null,
    "AwayTeamScore": null
  },
  {
    "MatchNumber": 235,
    "RoundNumber": 24,
    "DateUtc": "2024-02-10 15:00:00Z",
    "Location": "Kenilworth Road",
    "HomeTeam": "Luton",
    "AwayTeam": "Sheffield Utd",
    "Group": null,
    "HomeTeamScore": null,
    "AwayTeamScore": null
  },
  {
    "MatchNumber": 236,
    "RoundNumber": 24,
    "DateUtc": "2024-02-10 15:00:00Z",
    "Location": "Etihad Stadium",
    "HomeTeam": "Man City",
    "AwayTeam": "Everton",
    "Group": null,
    "HomeTeamScore": null,
    "AwayTeamScore": null
  },
  {
    "MatchNumber": 237,
    "RoundNumber": 24,
    "DateUtc": "2024-02-10 15:00:00Z",
    "Location": "The City Ground",
    "HomeTeam": "Nottingham Forest",
    "AwayTeam": "Newcastle",
    "Group": null,
    "HomeTeamScore": null,
    "AwayTeamScore": null
  },
  {
    "MatchNumber": 238,
    "RoundNumber": 24,
    "DateUtc": "2024-02-10 15:00:00Z",
    "Location": "Tottenham Hotspur Stadium",
    "HomeTeam": "Spurs",
    "AwayTeam": "Brighton",
    "Group": null,
    "HomeTeamScore": null,
    "AwayTeamScore": null
  },
  {
    "MatchNumber": 239,
    "RoundNumber": 24,
    "DateUtc": "2024-02-10 15:00:00Z",
    "Location": "London Stadium",
    "HomeTeam": "West Ham",
    "AwayTeam": "Arsenal",
    "Group": null,
    "HomeTeamScore": null,
    "AwayTeamScore": null
  },
  {
    "MatchNumber": 240,
    "RoundNumber": 24,
    "DateUtc": "2024-02-10 15:00:00Z",
    "Location": "Molineux Stadium",
    "HomeTeam": "Wolves",
    "AwayTeam": "Brentford",
    "Group": null,
    "HomeTeamScore": null,
    "AwayTeamScore": null
  },
  {
    "MatchNumber": 241,
    "RoundNumber": 25,
    "DateUtc": "2024-02-17 15:00:00Z",
    "Location": "Gtech Community Stadium",
    "HomeTeam": "Brentford",
    "AwayTeam": "Liverpool",
    "Group": null,
    "HomeTeamScore": null,
    "AwayTeamScore": null
  },
  {
    "MatchNumber": 242,
    "RoundNumber": 25,
    "DateUtc": "2024-02-17 15:00:00Z",
    "Location": "Turf Moor",
    "HomeTeam": "Burnley",
    "AwayTeam": "Arsenal",
    "Group": null,
    "HomeTeamScore": null,
    "AwayTeamScore": null
  },
  {
    "MatchNumber": 243,
    "RoundNumber": 25,
    "DateUtc": "2024-02-17 15:00:00Z",
    "Location": "Goodison Park",
    "HomeTeam": "Everton",
    "AwayTeam": "Crystal Palace",
    "Group": null,
    "HomeTeamScore": null,
    "AwayTeamScore": null
  },
  {
    "MatchNumber": 244,
    "RoundNumber": 25,
    "DateUtc": "2024-02-17 15:00:00Z",
    "Location": "Craven Cottage",
    "HomeTeam": "Fulham",
    "AwayTeam": "Aston Villa",
    "Group": null,
    "HomeTeamScore": null,
    "AwayTeamScore": null
  },
  {
    "MatchNumber": 245,
    "RoundNumber": 25,
    "DateUtc": "2024-02-17 15:00:00Z",
    "Location": "Kenilworth Road",
    "HomeTeam": "Luton",
    "AwayTeam": "Man Utd",
    "Group": null,
    "HomeTeamScore": null,
    "AwayTeamScore": null
  },
  {
    "MatchNumber": 246,
    "RoundNumber": 25,
    "DateUtc": "2024-02-17 15:00:00Z",
    "Location": "Etihad Stadium",
    "HomeTeam": "Man City",
    "AwayTeam": "Chelsea",
    "Group": null,
    "HomeTeamScore": null,
    "AwayTeamScore": null
  },
  {
    "MatchNumber": 247,
    "RoundNumber": 25,
    "DateUtc": "2024-02-17 15:00:00Z",
    "Location": "St. James' Park",
    "HomeTeam": "Newcastle",
    "AwayTeam": "Bournemouth",
    "Group": null,
    "HomeTeamScore": null,
    "AwayTeamScore": null
  },
  {
    "MatchNumber": 248,
    "RoundNumber": 25,
    "DateUtc": "2024-02-17 15:00:00Z",
    "Location": "The City Ground",
    "HomeTeam": "Nottingham Forest",
    "AwayTeam": "West Ham",
    "Group": null,
    "HomeTeamScore": null,
    "AwayTeamScore": null
  },
  {
    "MatchNumber": 249,
    "RoundNumber": 25,
    "DateUtc": "2024-02-17 15:00:00Z",
    "Location": "Bramall Lane",
    "HomeTeam": "Sheffield Utd",
    "AwayTeam": "Brighton",
    "Group": null,
    "HomeTeamScore": null,
    "AwayTeamScore": null
  },
  {
    "MatchNumber": 250,
    "RoundNumber": 25,
    "DateUtc": "2024-02-17 15:00:00Z",
    "Location": "Tottenham Hotspur Stadium",
    "HomeTeam": "Spurs",
    "AwayTeam": "Wolves",
    "Group": null,
    "HomeTeamScore": null,
    "AwayTeamScore": null
  },
  {
    "MatchNumber": 251,
    "RoundNumber": 26,
    "DateUtc": "2024-02-24 15:00:00Z",
    "Location": "Emirates Stadium",
    "HomeTeam": "Arsenal",
    "AwayTeam": "Newcastle",
    "Group": null,
    "HomeTeamScore": null,
    "AwayTeamScore": null
  },
  {
    "MatchNumber": 252,
    "RoundNumber": 26,
    "DateUtc": "2024-02-24 15:00:00Z",
    "Location": "Villa Park",
    "HomeTeam": "Aston Villa",
    "AwayTeam": "Nottingham Forest",
    "Group": null,
    "HomeTeamScore": null,
    "AwayTeamScore": null
  },
  {
    "MatchNumber": 253,
    "RoundNumber": 26,
    "DateUtc": "2024-02-24 15:00:00Z",
    "Location": "Vitality Stadium",
    "HomeTeam": "Bournemouth",
    "AwayTeam": "Man City",
    "Group": null,
    "HomeTeamScore": null,
    "AwayTeamScore": null
  },
  {
    "MatchNumber": 254,
    "RoundNumber": 26,
    "DateUtc": "2024-02-24 15:00:00Z",
    "Location": "Amex Stadium",
    "HomeTeam": "Brighton",
    "AwayTeam": "Everton",
    "Group": null,
    "HomeTeamScore": null,
    "AwayTeamScore": null
  },
  {
    "MatchNumber": 255,
    "RoundNumber": 26,
    "DateUtc": "2024-02-24 15:00:00Z",
    "Location": "Stamford Bridge",
    "HomeTeam": "Chelsea",
    "AwayTeam": "Spurs",
    "Group": null,
    "HomeTeamScore": null,
    "AwayTeamScore": null
  },
  {
    "MatchNumber": 256,
    "RoundNumber": 26,
    "DateUtc": "2024-02-24 15:00:00Z",
    "Location": "Selhurst Park",
    "HomeTeam": "Crystal Palace",
    "AwayTeam": "Burnley",
    "Group": null,
    "HomeTeamScore": null,
    "AwayTeamScore": null
  },
  {
    "MatchNumber": 257,
    "RoundNumber": 26,
    "DateUtc": "2024-02-24 15:00:00Z",
    "Location": "Anfield",
    "HomeTeam": "Liverpool",
    "AwayTeam": "Luton",
    "Group": null,
    "HomeTeamScore": null,
    "AwayTeamScore": null
  },
  {
    "MatchNumber": 258,
    "RoundNumber": 26,
    "DateUtc": "2024-02-24 15:00:00Z",
    "Location": "Old Trafford",
    "HomeTeam": "Man Utd",
    "AwayTeam": "Fulham",
    "Group": null,
    "HomeTeamScore": null,
    "AwayTeamScore": null
  },
  {
    "MatchNumber": 259,
    "RoundNumber": 26,
    "DateUtc": "2024-02-24 15:00:00Z",
    "Location": "London Stadium",
    "HomeTeam": "West Ham",
    "AwayTeam": "Brentford",
    "Group": null,
    "HomeTeamScore": null,
    "AwayTeamScore": null
  },
  {
    "MatchNumber": 260,
    "RoundNumber": 26,
    "DateUtc": "2024-02-24 15:00:00Z",
    "Location": "Molineux Stadium",
    "HomeTeam": "Wolves",
    "AwayTeam": "Sheffield Utd",
    "Group": null,
    "HomeTeamScore": null,
    "AwayTeamScore": null
  },
  {
    "MatchNumber": 261,
    "RoundNumber": 27,
    "DateUtc": "2024-03-02 15:00:00Z",
    "Location": "Gtech Community Stadium",
    "HomeTeam": "Brentford",
    "AwayTeam": "Chelsea",
    "Group": null,
    "HomeTeamScore": null,
    "AwayTeamScore": null
  },
  {
    "MatchNumber": 262,
    "RoundNumber": 27,
    "DateUtc": "2024-03-02 15:00:00Z",
    "Location": "Turf Moor",
    "HomeTeam": "Burnley",
    "AwayTeam": "Bournemouth",
    "Group": null,
    "HomeTeamScore": null,
    "AwayTeamScore": null
  },
  {
    "MatchNumber": 263,
    "RoundNumber": 27,
    "DateUtc": "2024-03-02 15:00:00Z",
    "Location": "Goodison Park",
    "HomeTeam": "Everton",
    "AwayTeam": "West Ham",
    "Group": null,
    "HomeTeamScore": null,
    "AwayTeamScore": null
  },
  {
    "MatchNumber": 264,
    "RoundNumber": 27,
    "DateUtc": "2024-03-02 15:00:00Z",
    "Location": "Craven Cottage",
    "HomeTeam": "Fulham",
    "AwayTeam": "Brighton",
    "Group": null,
    "HomeTeamScore": null,
    "AwayTeamScore": null
  },
  {
    "MatchNumber": 265,
    "RoundNumber": 27,
    "DateUtc": "2024-03-02 15:00:00Z",
    "Location": "Kenilworth Road",
    "HomeTeam": "Luton",
    "AwayTeam": "Aston Villa",
    "Group": null,
    "HomeTeamScore": null,
    "AwayTeamScore": null
  },
  {
    "MatchNumber": 266,
    "RoundNumber": 27,
    "DateUtc": "2024-03-02 15:00:00Z",
    "Location": "Etihad Stadium",
    "HomeTeam": "Man City",
    "AwayTeam": "Man Utd",
    "Group": null,
    "HomeTeamScore": null,
    "AwayTeamScore": null
  },
  {
    "MatchNumber": 267,
    "RoundNumber": 27,
    "DateUtc": "2024-03-02 15:00:00Z",
    "Location": "St. James' Park",
    "HomeTeam": "Newcastle",
    "AwayTeam": "Wolves",
    "Group": null,
    "HomeTeamScore": null,
    "AwayTeamScore": null
  },
  {
    "MatchNumber": 268,
    "RoundNumber": 27,
    "DateUtc": "2024-03-02 15:00:00Z",
    "Location": "The City Ground",
    "HomeTeam": "Nottingham Forest",
    "AwayTeam": "Liverpool",
    "Group": null,
    "HomeTeamScore": null,
    "AwayTeamScore": null
  },
  {
    "MatchNumber": 269,
    "RoundNumber": 27,
    "DateUtc": "2024-03-02 15:00:00Z",
    "Location": "Bramall Lane",
    "HomeTeam": "Sheffield Utd",
    "AwayTeam": "Arsenal",
    "Group": null,
    "HomeTeamScore": null,
    "AwayTeamScore": null
  },
  {
    "MatchNumber": 270,
    "RoundNumber": 27,
    "DateUtc": "2024-03-02 15:00:00Z",
    "Location": "Tottenham Hotspur Stadium",
    "HomeTeam": "Spurs",
    "AwayTeam": "Crystal Palace",
    "Group": null,
    "HomeTeamScore": null,
    "AwayTeamScore": null
  },
  {
    "MatchNumber": 271,
    "RoundNumber": 28,
    "DateUtc": "2024-03-09 15:00:00Z",
    "Location": "Emirates Stadium",
    "HomeTeam": "Arsenal",
    "AwayTeam": "Brentford",
    "Group": null,
    "HomeTeamScore": null,
    "AwayTeamScore": null
  },
  {
    "MatchNumber": 272,
    "RoundNumber": 28,
    "DateUtc": "2024-03-09 15:00:00Z",
    "Location": "Villa Park",
    "HomeTeam": "Aston Villa",
    "AwayTeam": "Spurs",
    "Group": null,
    "HomeTeamScore": null,
    "AwayTeamScore": null
  },
  {
    "MatchNumber": 273,
    "RoundNumber": 28,
    "DateUtc": "2024-03-09 15:00:00Z",
    "Location": "Vitality Stadium",
    "HomeTeam": "Bournemouth",
    "AwayTeam": "Sheffield Utd",
    "Group": null,
    "HomeTeamScore": null,
    "AwayTeamScore": null
  },
  {
    "MatchNumber": 274,
    "RoundNumber": 28,
    "DateUtc": "2024-03-09 15:00:00Z",
    "Location": "Amex Stadium",
    "HomeTeam": "Brighton",
    "AwayTeam": "Nottingham Forest",
    "Group": null,
    "HomeTeamScore": null,
    "AwayTeamScore": null
  },
  {
    "MatchNumber": 275,
    "RoundNumber": 28,
    "DateUtc": "2024-03-09 15:00:00Z",
    "Location": "Stamford Bridge",
    "HomeTeam": "Chelsea",
    "AwayTeam": "Newcastle",
    "Group": null,
    "HomeTeamScore": null,
    "AwayTeamScore": null
  },
  {
    "MatchNumber": 276,
    "RoundNumber": 28,
    "DateUtc": "2024-03-09 15:00:00Z",
    "Location": "Selhurst Park",
    "HomeTeam": "Crystal Palace",
    "AwayTeam": "Luton",
    "Group": null,
    "HomeTeamScore": null,
    "AwayTeamScore": null
  },
  {
    "MatchNumber": 277,
    "RoundNumber": 28,
    "DateUtc": "2024-03-09 15:00:00Z",
    "Location": "Anfield",
    "HomeTeam": "Liverpool",
    "AwayTeam": "Man City",
    "Group": null,
    "HomeTeamScore": null,
    "AwayTeamScore": null
  },
  {
    "MatchNumber": 278,
    "RoundNumber": 28,
    "DateUtc": "2024-03-09 15:00:00Z",
    "Location": "Old Trafford",
    "HomeTeam": "Man Utd",
    "AwayTeam": "Everton",
    "Group": null,
    "HomeTeamScore": null,
    "AwayTeamScore": null
  },
  {
    "MatchNumber": 279,
    "RoundNumber": 28,
    "DateUtc": "2024-03-09 15:00:00Z",
    "Location": "London Stadium",
    "HomeTeam": "West Ham",
    "AwayTeam": "Burnley",
    "Group": null,
    "HomeTeamScore": null,
    "AwayTeamScore": null
  },
  {
    "MatchNumber": 280,
    "RoundNumber": 28,
    "DateUtc": "2024-03-09 15:00:00Z",
    "Location": "Molineux Stadium",
    "HomeTeam": "Wolves",
    "AwayTeam": "Fulham",
    "Group": null,
    "HomeTeamScore": null,
    "AwayTeamScore": null
  },
  {
    "MatchNumber": 281,
    "RoundNumber": 29,
    "DateUtc": "2024-03-16 15:00:00Z",
    "Location": "Emirates Stadium",
    "HomeTeam": "Arsenal",
    "AwayTeam": "Chelsea",
    "Group": null,
    "HomeTeamScore": null,
    "AwayTeamScore": null
  },
  {
    "MatchNumber": 282,
    "RoundNumber": 29,
    "DateUtc": "2024-03-16 15:00:00Z",
    "Location": "Amex Stadium",
    "HomeTeam": "Brighton",
    "AwayTeam": "Man City",
    "Group": null,
    "HomeTeamScore": null,
    "AwayTeamScore": null
  },
  {
    "MatchNumber": 283,
    "RoundNumber": 29,
    "DateUtc": "2024-03-16 15:00:00Z",
    "Location": "Turf Moor",
    "HomeTeam": "Burnley",
    "AwayTeam": "Brentford",
    "Group": null,
    "HomeTeamScore": null,
    "AwayTeamScore": null
  },
  {
    "MatchNumber": 284,
    "RoundNumber": 29,
    "DateUtc": "2024-03-16 15:00:00Z",
    "Location": "Selhurst Park",
    "HomeTeam": "Crystal Palace",
    "AwayTeam": "Newcastle",
    "Group": null,
    "HomeTeamScore": null,
    "AwayTeamScore": null
  },
  {
    "MatchNumber": 285,
    "RoundNumber": 29,
    "DateUtc": "2024-03-16 15:00:00Z",
    "Location": "Goodison Park",
    "HomeTeam": "Everton",
    "AwayTeam": "Liverpool",
    "Group": null,
    "HomeTeamScore": null,
    "AwayTeamScore": null
  },
  {
    "MatchNumber": 286,
    "RoundNumber": 29,
    "DateUtc": "2024-03-16 15:00:00Z",
    "Location": "Craven Cottage",
    "HomeTeam": "Fulham",
    "AwayTeam": "Spurs",
    "Group": null,
    "HomeTeamScore": null,
    "AwayTeamScore": null
  },
  {
    "MatchNumber": 287,
    "RoundNumber": 29,
    "DateUtc": "2024-03-16 15:00:00Z",
    "Location": "Kenilworth Road",
    "HomeTeam": "Luton",
    "AwayTeam": "Nottingham Forest",
    "Group": null,
    "HomeTeamScore": null,
    "AwayTeamScore": null
  },
  {
    "MatchNumber": 288,
    "RoundNumber": 29,
    "DateUtc": "2024-03-16 15:00:00Z",
    "Location": "Old Trafford",
    "HomeTeam": "Man Utd",
    "AwayTeam": "Sheffield Utd",
    "Group": null,
    "HomeTeamScore": null,
    "AwayTeamScore": null
  },
  {
    "MatchNumber": 289,
    "RoundNumber": 29,
    "DateUtc": "2024-03-16 15:00:00Z",
    "Location": "London Stadium",
    "HomeTeam": "West Ham",
    "AwayTeam": "Aston Villa",
    "Group": null,
    "HomeTeamScore": null,
    "AwayTeamScore": null
  },
  {
    "MatchNumber": 290,
    "RoundNumber": 29,
    "DateUtc": "2024-03-16 15:00:00Z",
    "Location": "Molineux Stadium",
    "HomeTeam": "Wolves",
    "AwayTeam": "Bournemouth",
    "Group": null,
    "HomeTeamScore": null,
    "AwayTeamScore": null
  },
  {
    "MatchNumber": 291,
    "RoundNumber": 30,
    "DateUtc": "2024-03-30 15:00:00Z",
    "Location": "Villa Park",
    "HomeTeam": "Aston Villa",
    "AwayTeam": "Wolves",
    "Group": null,
    "HomeTeamScore": null,
    "AwayTeamScore": null
  },
  {
    "MatchNumber": 292,
    "RoundNumber": 30,
    "DateUtc": "2024-03-30 15:00:00Z",
    "Location": "Vitality Stadium",
    "HomeTeam": "Bournemouth",
    "AwayTeam": "Everton",
    "Group": null,
    "HomeTeamScore": null,
    "AwayTeamScore": null
  },
  {
    "MatchNumber": 293,
    "RoundNumber": 30,
    "DateUtc": "2024-03-30 15:00:00Z",
    "Location": "Gtech Community Stadium",
    "HomeTeam": "Brentford",
    "AwayTeam": "Man Utd",
    "Group": null,
    "HomeTeamScore": null,
    "AwayTeamScore": null
  },
  {
    "MatchNumber": 294,
    "RoundNumber": 30,
    "DateUtc": "2024-03-30 15:00:00Z",
    "Location": "Stamford Bridge",
    "HomeTeam": "Chelsea",
    "AwayTeam": "Burnley",
    "Group": null,
    "HomeTeamScore": null,
    "AwayTeamScore": null
  },
  {
    "MatchNumber": 295,
    "RoundNumber": 30,
    "DateUtc": "2024-03-30 15:00:00Z",
    "Location": "Anfield",
    "HomeTeam": "Liverpool",
    "AwayTeam": "Brighton",
    "Group": null,
    "HomeTeamScore": null,
    "AwayTeamScore": null
  },
  {
    "MatchNumber": 296,
    "RoundNumber": 30,
    "DateUtc": "2024-03-30 15:00:00Z",
    "Location": "Etihad Stadium",
    "HomeTeam": "Man City",
    "AwayTeam": "Arsenal",
    "Group": null,
    "HomeTeamScore": null,
    "AwayTeamScore": null
  },
  {
    "MatchNumber": 297,
    "RoundNumber": 30,
    "DateUtc": "2024-03-30 15:00:00Z",
    "Location": "St. James' Park",
    "HomeTeam": "Newcastle",
    "AwayTeam": "West Ham",
    "Group": null,
    "HomeTeamScore": null,
    "AwayTeamScore": null
  },
  {
    "MatchNumber": 298,
    "RoundNumber": 30,
    "DateUtc": "2024-03-30 15:00:00Z",
    "Location": "The City Ground",
    "HomeTeam": "Nottingham Forest",
    "AwayTeam": "Crystal Palace",
    "Group": null,
    "HomeTeamScore": null,
    "AwayTeamScore": null
  },
  {
    "MatchNumber": 299,
    "RoundNumber": 30,
    "DateUtc": "2024-03-30 15:00:00Z",
    "Location": "Bramall Lane",
    "HomeTeam": "Sheffield Utd",
    "AwayTeam": "Fulham",
    "Group": null,
    "HomeTeamScore": null,
    "AwayTeamScore": null
  },
  {
    "MatchNumber": 300,
    "RoundNumber": 30,
    "DateUtc": "2024-03-30 15:00:00Z",
    "Location": "Tottenham Hotspur Stadium",
    "HomeTeam": "Spurs",
    "AwayTeam": "Luton",
    "Group": null,
    "HomeTeamScore": null,
    "AwayTeamScore": null
  },
  {
    "MatchNumber": 301,
    "RoundNumber": 31,
    "DateUtc": "2024-04-02 18:45:00Z",
    "Location": "Emirates Stadium",
    "HomeTeam": "Arsenal",
    "AwayTeam": "Luton",
    "Group": null,
    "HomeTeamScore": null,
    "AwayTeamScore": null
  },
  {
    "MatchNumber": 302,
    "RoundNumber": 31,
    "DateUtc": "2024-04-02 18:45:00Z",
    "Location": "Vitality Stadium",
    "HomeTeam": "Bournemouth",
    "AwayTeam": "Crystal Palace",
    "Group": null,
    "HomeTeamScore": null,
    "AwayTeamScore": null
  },
  {
    "MatchNumber": 303,
    "RoundNumber": 31,
    "DateUtc": "2024-04-02 18:45:00Z",
    "Location": "Gtech Community Stadium",
    "HomeTeam": "Brentford",
    "AwayTeam": "Brighton",
    "Group": null,
    "HomeTeamScore": null,
    "AwayTeamScore": null
  },
  {
    "MatchNumber": 304,
    "RoundNumber": 31,
    "DateUtc": "2024-04-02 18:45:00Z",
    "Location": "Turf Moor",
    "HomeTeam": "Burnley",
    "AwayTeam": "Wolves",
    "Group": null,
    "HomeTeamScore": null,
    "AwayTeamScore": null
  },
  {
    "MatchNumber": 305,
    "RoundNumber": 31,
    "DateUtc": "2024-04-02 18:45:00Z",
    "Location": "The City Ground",
    "HomeTeam": "Nottingham Forest",
    "AwayTeam": "Fulham",
    "Group": null,
    "HomeTeamScore": null,
    "AwayTeamScore": null
  },
  {
    "MatchNumber": 306,
    "RoundNumber": 31,
    "DateUtc": "2024-04-02 18:45:00Z",
    "Location": "London Stadium",
    "HomeTeam": "West Ham",
    "AwayTeam": "Spurs",
    "Group": null,
    "HomeTeamScore": null,
    "AwayTeamScore": null
  },
  {
    "MatchNumber": 307,
    "RoundNumber": 31,
    "DateUtc": "2024-04-03 18:45:00Z",
    "Location": "Stamford Bridge",
    "HomeTeam": "Chelsea",
    "AwayTeam": "Man Utd",
    "Group": null,
    "HomeTeamScore": null,
    "AwayTeamScore": null
  },
  {
    "MatchNumber": 308,
    "RoundNumber": 31,
    "DateUtc": "2024-04-03 18:45:00Z",
    "Location": "St. James' Park",
    "HomeTeam": "Newcastle",
    "AwayTeam": "Everton",
    "Group": null,
    "HomeTeamScore": null,
    "AwayTeamScore": null
  },
  {
    "MatchNumber": 309,
    "RoundNumber": 31,
    "DateUtc": "2024-04-03 19:00:00Z",
    "Location": "Anfield",
    "HomeTeam": "Liverpool",
    "AwayTeam": "Sheffield Utd",
    "Group": null,
    "HomeTeamScore": null,
    "AwayTeamScore": null
  },
  {
    "MatchNumber": 310,
    "RoundNumber": 31,
    "DateUtc": "2024-04-03 19:00:00Z",
    "Location": "Etihad Stadium",
    "HomeTeam": "Man City",
    "AwayTeam": "Aston Villa",
    "Group": null,
    "HomeTeamScore": null,
    "AwayTeamScore": null
  },
  {
    "MatchNumber": 311,
    "RoundNumber": 32,
    "DateUtc": "2024-04-06 14:00:00Z",
    "Location": "Villa Park",
    "HomeTeam": "Aston Villa",
    "AwayTeam": "Brentford",
    "Group": null,
    "HomeTeamScore": null,
    "AwayTeamScore": null
  },
  {
    "MatchNumber": 312,
    "RoundNumber": 32,
    "DateUtc": "2024-04-06 14:00:00Z",
    "Location": "Amex Stadium",
    "HomeTeam": "Brighton",
    "AwayTeam": "Arsenal",
    "Group": null,
    "HomeTeamScore": null,
    "AwayTeamScore": null
  },
  {
    "MatchNumber": 313,
    "RoundNumber": 32,
    "DateUtc": "2024-04-06 14:00:00Z",
    "Location": "Selhurst Park",
    "HomeTeam": "Crystal Palace",
    "AwayTeam": "Man City",
    "Group": null,
    "HomeTeamScore": null,
    "AwayTeamScore": null
  },
  {
    "MatchNumber": 314,
    "RoundNumber": 32,
    "DateUtc": "2024-04-06 14:00:00Z",
    "Location": "Goodison Park",
    "HomeTeam": "Everton",
    "AwayTeam": "Burnley",
    "Group": null,
    "HomeTeamScore": null,
    "AwayTeamScore": null
  },
  {
    "MatchNumber": 315,
    "RoundNumber": 32,
    "DateUtc": "2024-04-06 14:00:00Z",
    "Location": "Craven Cottage",
    "HomeTeam": "Fulham",
    "AwayTeam": "Newcastle",
    "Group": null,
    "HomeTeamScore": null,
    "AwayTeamScore": null
  },
  {
    "MatchNumber": 316,
    "RoundNumber": 32,
    "DateUtc": "2024-04-06 14:00:00Z",
    "Location": "Kenilworth Road",
    "HomeTeam": "Luton",
    "AwayTeam": "Bournemouth",
    "Group": null,
    "HomeTeamScore": null,
    "AwayTeamScore": null
  },
  {
    "MatchNumber": 317,
    "RoundNumber": 32,
    "DateUtc": "2024-04-06 14:00:00Z",
    "Location": "Old Trafford",
    "HomeTeam": "Man Utd",
    "AwayTeam": "Liverpool",
    "Group": null,
    "HomeTeamScore": null,
    "AwayTeamScore": null
  },
  {
    "MatchNumber": 318,
    "RoundNumber": 32,
    "DateUtc": "2024-04-06 14:00:00Z",
    "Location": "Bramall Lane",
    "HomeTeam": "Sheffield Utd",
    "AwayTeam": "Chelsea",
    "Group": null,
    "HomeTeamScore": null,
    "AwayTeamScore": null
  },
  {
    "MatchNumber": 319,
    "RoundNumber": 32,
    "DateUtc": "2024-04-06 14:00:00Z",
    "Location": "Tottenham Hotspur Stadium",
    "HomeTeam": "Spurs",
    "AwayTeam": "Nottingham Forest",
    "Group": null,
    "HomeTeamScore": null,
    "AwayTeamScore": null
  },
  {
    "MatchNumber": 320,
    "RoundNumber": 32,
    "DateUtc": "2024-04-06 14:00:00Z",
    "Location": "Molineux Stadium",
    "HomeTeam": "Wolves",
    "AwayTeam": "West Ham",
    "Group": null,
    "HomeTeamScore": null,
    "AwayTeamScore": null
  },
  {
    "MatchNumber": 321,
    "RoundNumber": 33,
    "DateUtc": "2024-04-13 14:00:00Z",
    "Location": "Emirates Stadium",
    "HomeTeam": "Arsenal",
    "AwayTeam": "Aston Villa",
    "Group": null,
    "HomeTeamScore": null,
    "AwayTeamScore": null
  },
  {
    "MatchNumber": 322,
    "RoundNumber": 33,
    "DateUtc": "2024-04-13 14:00:00Z",
    "Location": "Vitality Stadium",
    "HomeTeam": "Bournemouth",
    "AwayTeam": "Man Utd",
    "Group": null,
    "HomeTeamScore": null,
    "AwayTeamScore": null
  },
  {
    "MatchNumber": 323,
    "RoundNumber": 33,
    "DateUtc": "2024-04-13 14:00:00Z",
    "Location": "Gtech Community Stadium",
    "HomeTeam": "Brentford",
    "AwayTeam": "Sheffield Utd",
    "Group": null,
    "HomeTeamScore": null,
    "AwayTeamScore": null
  },
  {
    "MatchNumber": 324,
    "RoundNumber": 33,
    "DateUtc": "2024-04-13 14:00:00Z",
    "Location": "Turf Moor",
    "HomeTeam": "Burnley",
    "AwayTeam": "Brighton",
    "Group": null,
    "HomeTeamScore": null,
    "AwayTeamScore": null
  },
  {
    "MatchNumber": 325,
    "RoundNumber": 33,
    "DateUtc": "2024-04-13 14:00:00Z",
    "Location": "Stamford Bridge",
    "HomeTeam": "Chelsea",
    "AwayTeam": "Everton",
    "Group": null,
    "HomeTeamScore": null,
    "AwayTeamScore": null
  },
  {
    "MatchNumber": 326,
    "RoundNumber": 33,
    "DateUtc": "2024-04-13 14:00:00Z",
    "Location": "Anfield",
    "HomeTeam": "Liverpool",
    "AwayTeam": "Crystal Palace",
    "Group": null,
    "HomeTeamScore": null,
    "AwayTeamScore": null
  },
  {
    "MatchNumber": 327,
    "RoundNumber": 33,
    "DateUtc": "2024-04-13 14:00:00Z",
    "Location": "Etihad Stadium",
    "HomeTeam": "Man City",
    "AwayTeam": "Luton",
    "Group": null,
    "HomeTeamScore": null,
    "AwayTeamScore": null
  },
  {
    "MatchNumber": 328,
    "RoundNumber": 33,
    "DateUtc": "2024-04-13 14:00:00Z",
    "Location": "St. James' Park",
    "HomeTeam": "Newcastle",
    "AwayTeam": "Spurs",
    "Group": null,
    "HomeTeamScore": null,
    "AwayTeamScore": null
  },
  {
    "MatchNumber": 329,
    "RoundNumber": 33,
    "DateUtc": "2024-04-13 14:00:00Z",
    "Location": "The City Ground",
    "HomeTeam": "Nottingham Forest",
    "AwayTeam": "Wolves",
    "Group": null,
    "HomeTeamScore": null,
    "AwayTeamScore": null
  },
  {
    "MatchNumber": 330,
    "RoundNumber": 33,
    "DateUtc": "2024-04-13 14:00:00Z",
    "Location": "London Stadium",
    "HomeTeam": "West Ham",
    "AwayTeam": "Fulham",
    "Group": null,
    "HomeTeamScore": null,
    "AwayTeamScore": null
  },
  {
    "MatchNumber": 331,
    "RoundNumber": 34,
    "DateUtc": "2024-04-20 14:00:00Z",
    "Location": "Villa Park",
    "HomeTeam": "Aston Villa",
    "AwayTeam": "Bournemouth",
    "Group": null,
    "HomeTeamScore": null,
    "AwayTeamScore": null
  },
  {
    "MatchNumber": 332,
    "RoundNumber": 34,
    "DateUtc": "2024-04-20 14:00:00Z",
    "Location": "Amex Stadium",
    "HomeTeam": "Brighton",
    "AwayTeam": "Chelsea",
    "Group": null,
    "HomeTeamScore": null,
    "AwayTeamScore": null
  },
  {
    "MatchNumber": 333,
    "RoundNumber": 34,
    "DateUtc": "2024-04-20 14:00:00Z",
    "Location": "Selhurst Park",
    "HomeTeam": "Crystal Palace",
    "AwayTeam": "West Ham",
    "Group": null,
    "HomeTeamScore": null,
    "AwayTeamScore": null
  },
  {
    "MatchNumber": 334,
    "RoundNumber": 34,
    "DateUtc": "2024-04-20 14:00:00Z",
    "Location": "Goodison Park",
    "HomeTeam": "Everton",
    "AwayTeam": "Nottingham Forest",
    "Group": null,
    "HomeTeamScore": null,
    "AwayTeamScore": null
  },
  {
    "MatchNumber": 335,
    "RoundNumber": 34,
    "DateUtc": "2024-04-20 14:00:00Z",
    "Location": "Craven Cottage",
    "HomeTeam": "Fulham",
    "AwayTeam": "Liverpool",
    "Group": null,
    "HomeTeamScore": null,
    "AwayTeamScore": null
  },
  {
    "MatchNumber": 336,
    "RoundNumber": 34,
    "DateUtc": "2024-04-20 14:00:00Z",
    "Location": "Kenilworth Road",
    "HomeTeam": "Luton",
    "AwayTeam": "Brentford",
    "Group": null,
    "HomeTeamScore": null,
    "AwayTeamScore": null
  },
  {
    "MatchNumber": 337,
    "RoundNumber": 34,
    "DateUtc": "2024-04-20 14:00:00Z",
    "Location": "Old Trafford",
    "HomeTeam": "Man Utd",
    "AwayTeam": "Newcastle",
    "Group": null,
    "HomeTeamScore": null,
    "AwayTeamScore": null
  },
  {
    "MatchNumber": 338,
    "RoundNumber": 34,
    "DateUtc": "2024-04-20 14:00:00Z",
    "Location": "Bramall Lane",
    "HomeTeam": "Sheffield Utd",
    "AwayTeam": "Burnley",
    "Group": null,
    "HomeTeamScore": null,
    "AwayTeamScore": null
  },
  {
    "MatchNumber": 339,
    "RoundNumber": 34,
    "DateUtc": "2024-04-20 14:00:00Z",
    "Location": "Tottenham Hotspur Stadium",
    "HomeTeam": "Spurs",
    "AwayTeam": "Man City",
    "Group": null,
    "HomeTeamScore": null,
    "AwayTeamScore": null
  },
  {
    "MatchNumber": 340,
    "RoundNumber": 34,
    "DateUtc": "2024-04-20 14:00:00Z",
    "Location": "Molineux Stadium",
    "HomeTeam": "Wolves",
    "AwayTeam": "Arsenal",
    "Group": null,
    "HomeTeamScore": null,
    "AwayTeamScore": null
  },
  {
    "MatchNumber": 341,
    "RoundNumber": 35,
    "DateUtc": "2024-04-27 14:00:00Z",
    "Location": "Villa Park",
    "HomeTeam": "Aston Villa",
    "AwayTeam": "Chelsea",
    "Group": null,
    "HomeTeamScore": null,
    "AwayTeamScore": null
  },
  {
    "MatchNumber": 342,
    "RoundNumber": 35,
    "DateUtc": "2024-04-27 14:00:00Z",
    "Location": "Vitality Stadium",
    "HomeTeam": "Bournemouth",
    "AwayTeam": "Brighton",
    "Group": null,
    "HomeTeamScore": null,
    "AwayTeamScore": null
  },
  {
    "MatchNumber": 343,
    "RoundNumber": 35,
    "DateUtc": "2024-04-27 14:00:00Z",
    "Location": "Goodison Park",
    "HomeTeam": "Everton",
    "AwayTeam": "Brentford",
    "Group": null,
    "HomeTeamScore": null,
    "AwayTeamScore": null
  },
  {
    "MatchNumber": 344,
    "RoundNumber": 35,
    "DateUtc": "2024-04-27 14:00:00Z",
    "Location": "Craven Cottage",
    "HomeTeam": "Fulham",
    "AwayTeam": "Crystal Palace",
    "Group": null,
    "HomeTeamScore": null,
    "AwayTeamScore": null
  },
  {
    "MatchNumber": 345,
    "RoundNumber": 35,
    "DateUtc": "2024-04-27 14:00:00Z",
    "Location": "Old Trafford",
    "HomeTeam": "Man Utd",
    "AwayTeam": "Burnley",
    "Group": null,
    "HomeTeamScore": null,
    "AwayTeamScore": null
  },
  {
    "MatchNumber": 346,
    "RoundNumber": 35,
    "DateUtc": "2024-04-27 14:00:00Z",
    "Location": "St. James' Park",
    "HomeTeam": "Newcastle",
    "AwayTeam": "Sheffield Utd",
    "Group": null,
    "HomeTeamScore": null,
    "AwayTeamScore": null
  },
  {
    "MatchNumber": 347,
    "RoundNumber": 35,
    "DateUtc": "2024-04-27 14:00:00Z",
    "Location": "The City Ground",
    "HomeTeam": "Nottingham Forest",
    "AwayTeam": "Man City",
    "Group": null,
    "HomeTeamScore": null,
    "AwayTeamScore": null
  },
  {
    "MatchNumber": 348,
    "RoundNumber": 35,
    "DateUtc": "2024-04-27 14:00:00Z",
    "Location": "Tottenham Hotspur Stadium",
    "HomeTeam": "Spurs",
    "AwayTeam": "Arsenal",
    "Group": null,
    "HomeTeamScore": null,
    "AwayTeamScore": null
  },
  {
    "MatchNumber": 349,
    "RoundNumber": 35,
    "DateUtc": "2024-04-27 14:00:00Z",
    "Location": "London Stadium",
    "HomeTeam": "West Ham",
    "AwayTeam": "Liverpool",
    "Group": null,
    "HomeTeamScore": null,
    "AwayTeamScore": null
  },
  {
    "MatchNumber": 350,
    "RoundNumber": 35,
    "DateUtc": "2024-04-27 14:00:00Z",
    "Location": "Molineux Stadium",
    "HomeTeam": "Wolves",
    "AwayTeam": "Luton",
    "Group": null,
    "HomeTeamScore": null,
    "AwayTeamScore": null
  },
  {
    "MatchNumber": 351,
    "RoundNumber": 36,
    "DateUtc": "2024-05-04 14:00:00Z",
    "Location": "Emirates Stadium",
    "HomeTeam": "Arsenal",
    "AwayTeam": "Bournemouth",
    "Group": null,
    "HomeTeamScore": null,
    "AwayTeamScore": null
  },
  {
    "MatchNumber": 352,
    "RoundNumber": 36,
    "DateUtc": "2024-05-04 14:00:00Z",
    "Location": "Gtech Community Stadium",
    "HomeTeam": "Brentford",
    "AwayTeam": "Fulham",
    "Group": null,
    "HomeTeamScore": null,
    "AwayTeamScore": null
  },
  {
    "MatchNumber": 353,
    "RoundNumber": 36,
    "DateUtc": "2024-05-04 14:00:00Z",
    "Location": "Amex Stadium",
    "HomeTeam": "Brighton",
    "AwayTeam": "Aston Villa",
    "Group": null,
    "HomeTeamScore": null,
    "AwayTeamScore": null
  },
  {
    "MatchNumber": 354,
    "RoundNumber": 36,
    "DateUtc": "2024-05-04 14:00:00Z",
    "Location": "Turf Moor",
    "HomeTeam": "Burnley",
    "AwayTeam": "Newcastle",
    "Group": null,
    "HomeTeamScore": null,
    "AwayTeamScore": null
  },
  {
    "MatchNumber": 355,
    "RoundNumber": 36,
    "DateUtc": "2024-05-04 14:00:00Z",
    "Location": "Stamford Bridge",
    "HomeTeam": "Chelsea",
    "AwayTeam": "West Ham",
    "Group": null,
    "HomeTeamScore": null,
    "AwayTeamScore": null
  },
  {
    "MatchNumber": 356,
    "RoundNumber": 36,
    "DateUtc": "2024-05-04 14:00:00Z",
    "Location": "Selhurst Park",
    "HomeTeam": "Crystal Palace",
    "AwayTeam": "Man Utd",
    "Group": null,
    "HomeTeamScore": null,
    "AwayTeamScore": null
  },
  {
    "MatchNumber": 357,
    "RoundNumber": 36,
    "DateUtc": "2024-05-04 14:00:00Z",
    "Location": "Anfield",
    "HomeTeam": "Liverpool",
    "AwayTeam": "Spurs",
    "Group": null,
    "HomeTeamScore": null,
    "AwayTeamScore": null
  },
  {
    "MatchNumber": 358,
    "RoundNumber": 36,
    "DateUtc": "2024-05-04 14:00:00Z",
    "Location": "Kenilworth Road",
    "HomeTeam": "Luton",
    "AwayTeam": "Everton",
    "Group": null,
    "HomeTeamScore": null,
    "AwayTeamScore": null
  },
  {
    "MatchNumber": 359,
    "RoundNumber": 36,
    "DateUtc": "2024-05-04 14:00:00Z",
    "Location": "Etihad Stadium",
    "HomeTeam": "Man City",
    "AwayTeam": "Wolves",
    "Group": null,
    "HomeTeamScore": null,
    "AwayTeamScore": null
  },
  {
    "MatchNumber": 360,
    "RoundNumber": 36,
    "DateUtc": "2024-05-04 14:00:00Z",
    "Location": "Bramall Lane",
    "HomeTeam": "Sheffield Utd",
    "AwayTeam": "Nottingham Forest",
    "Group": null,
    "HomeTeamScore": null,
    "AwayTeamScore": null
  },
  {
    "MatchNumber": 361,
    "RoundNumber": 37,
    "DateUtc": "2024-05-11 14:00:00Z",
    "Location": "Villa Park",
    "HomeTeam": "Aston Villa",
    "AwayTeam": "Liverpool",
    "Group": null,
    "HomeTeamScore": null,
    "AwayTeamScore": null
  },
  {
    "MatchNumber": 362,
    "RoundNumber": 37,
    "DateUtc": "2024-05-11 14:00:00Z",
    "Location": "Vitality Stadium",
    "HomeTeam": "Bournemouth",
    "AwayTeam": "Brentford",
    "Group": null,
    "HomeTeamScore": null,
    "AwayTeamScore": null
  },
  {
    "MatchNumber": 363,
    "RoundNumber": 37,
    "DateUtc": "2024-05-11 14:00:00Z",
    "Location": "Goodison Park",
    "HomeTeam": "Everton",
    "AwayTeam": "Sheffield Utd",
    "Group": null,
    "HomeTeamScore": null,
    "AwayTeamScore": null
  },
  {
    "MatchNumber": 364,
    "RoundNumber": 37,
    "DateUtc": "2024-05-11 14:00:00Z",
    "Location": "Craven Cottage",
    "HomeTeam": "Fulham",
    "AwayTeam": "Man City",
    "Group": null,
    "HomeTeamScore": null,
    "AwayTeamScore": null
  },
  {
    "MatchNumber": 365,
    "RoundNumber": 37,
    "DateUtc": "2024-05-11 14:00:00Z",
    "Location": "Old Trafford",
    "HomeTeam": "Man Utd",
    "AwayTeam": "Arsenal",
    "Group": null,
    "HomeTeamScore": null,
    "AwayTeamScore": null
  },
  {
    "MatchNumber": 366,
    "RoundNumber": 37,
    "DateUtc": "2024-05-11 14:00:00Z",
    "Location": "St. James' Park",
    "HomeTeam": "Newcastle",
    "AwayTeam": "Brighton",
    "Group": null,
    "HomeTeamScore": null,
    "AwayTeamScore": null
  },
  {
    "MatchNumber": 367,
    "RoundNumber": 37,
    "DateUtc": "2024-05-11 14:00:00Z",
    "Location": "The City Ground",
    "HomeTeam": "Nottingham Forest",
    "AwayTeam": "Chelsea",
    "Group": null,
    "HomeTeamScore": null,
    "AwayTeamScore": null
  },
  {
    "MatchNumber": 368,
    "RoundNumber": 37,
    "DateUtc": "2024-05-11 14:00:00Z",
    "Location": "Tottenham Hotspur Stadium",
    "HomeTeam": "Spurs",
    "AwayTeam": "Burnley",
    "Group": null,
    "HomeTeamScore": null,
    "AwayTeamScore": null
  },
  {
    "MatchNumber": 369,
    "RoundNumber": 37,
    "DateUtc": "2024-05-11 14:00:00Z",
    "Location": "London Stadium",
    "HomeTeam": "West Ham",
    "AwayTeam": "Luton",
    "Group": null,
    "HomeTeamScore": null,
    "AwayTeamScore": null
  },
  {
    "MatchNumber": 370,
    "RoundNumber": 37,
    "DateUtc": "2024-05-11 14:00:00Z",
    "Location": "Molineux Stadium",
    "HomeTeam": "Wolves",
    "AwayTeam": "Crystal Palace",
    "Group": null,
    "HomeTeamScore": null,
    "AwayTeamScore": null
  },
  {
    "MatchNumber": 371,
    "RoundNumber": 38,
    "DateUtc": "2024-05-19 15:00:00Z",
    "Location": "Emirates Stadium",
    "HomeTeam": "Arsenal",
    "AwayTeam": "Everton",
    "Group": null,
    "HomeTeamScore": null,
    "AwayTeamScore": null
  },
  {
    "MatchNumber": 372,
    "RoundNumber": 38,
    "DateUtc": "2024-05-19 15:00:00Z",
    "Location": "Gtech Community Stadium",
    "HomeTeam": "Brentford",
    "AwayTeam": "Newcastle",
    "Group": null,
    "HomeTeamScore": null,
    "AwayTeamScore": null
  },
  {
    "MatchNumber": 373,
    "RoundNumber": 38,
    "DateUtc": "2024-05-19 15:00:00Z",
    "Location": "Amex Stadium",
    "HomeTeam": "Brighton",
    "AwayTeam": "Man Utd",
    "Group": null,
    "HomeTeamScore": null,
    "AwayTeamScore": null
  },
  {
    "MatchNumber": 374,
    "RoundNumber": 38,
    "DateUtc": "2024-05-19 15:00:00Z",
    "Location": "Turf Moor",
    "HomeTeam": "Burnley",
    "AwayTeam": "Nottingham Forest",
    "Group": null,
    "HomeTeamScore": null,
    "AwayTeamScore": null
  },
  {
    "MatchNumber": 375,
    "RoundNumber": 38,
    "DateUtc": "2024-05-19 15:00:00Z",
    "Location": "Stamford Bridge",
    "HomeTeam": "Chelsea",
    "AwayTeam": "Bournemouth",
    "Group": null,
    "HomeTeamScore": null,
    "AwayTeamScore": null
  },
  {
    "MatchNumber": 376,
    "RoundNumber": 38,
    "DateUtc": "2024-05-19 15:00:00Z",
    "Location": "Selhurst Park",
    "HomeTeam": "Crystal Palace",
    "AwayTeam": "Aston Villa",
    "Group": null,
    "HomeTeamScore": null,
    "AwayTeamScore": null
  },
  {
    "MatchNumber": 377,
    "RoundNumber": 38,
    "DateUtc": "2024-05-19 15:00:00Z",
    "Location": "Anfield",
    "HomeTeam": "Liverpool",
    "AwayTeam": "Wolves",
    "Group": null,
    "HomeTeamScore": null,
    "AwayTeamScore": null
  },
  {
    "MatchNumber": 378,
    "RoundNumber": 38,
    "DateUtc": "2024-05-19 15:00:00Z",
    "Location": "Kenilworth Road",
    "HomeTeam": "Luton",
    "AwayTeam": "Fulham",
    "Group": null,
    "HomeTeamScore": null,
    "AwayTeamScore": null
  },
  {
    "MatchNumber": 379,
    "RoundNumber": 38,
    "DateUtc": "2024-05-19 15:00:00Z",
    "Location": "Etihad Stadium",
    "HomeTeam": "Man City",
    "AwayTeam": "West Ham",
    "Group": null,
    "HomeTeamScore": null,
    "AwayTeamScore": null
  },
  {
    "MatchNumber": 380,
    "RoundNumber": 38,
    "DateUtc": "2024-05-19 15:00:00Z",
    "Location": "Bramall Lane",
    "HomeTeam": "Sheffield Utd",
    "AwayTeam": "Spurs",
    "Group": null,
    "HomeTeamScore": null,
    "AwayTeamScore": null
  }
]